Air Operations ,CDEM Advisors HB,CDEM Advisors Other Regions,CDEM Group HB Deputy Mayors,CDEM Managers CDEM Groups ,CDEM Senior Managers Other Regions,CDEM SME EMIS ,CEG Advisory Group,CEO's - HB,Comms - Intercomm,Comms - Media,Controllers ,Distribution List Group Plan,Duty Manager Other Contacts,ECC Group Incident Management Team,ECC Group Logistics and Support,ECC Group Operations Liaison Team,ECC Group Planning and Intelligence Team,ECC Group Public Information Team,ECC Group Role holders,ECC support HBRC EOC Staff that Service Group ECC,Emergency Management Resource Mapping Tool,Emergency Services,EMIS HB Approvers,EMIS HB Super Users Operations,EOC Call Centre Contact List ,EOC Comms DORT contacts,EOC Group  HBRC  Facilities,EOC's HB,EOC's Outside HB,ESCC Emergency Services Coordinating Committee ,Hazard Advisory Group,Hazmat Coordinating Committee (HCC),HBRC,HBRC Duty Managers,HBRC Flood Warning team,HBRC Pollution,Health AG,HECC (Health Emergency Co-ordinating Committee),Joint Committee HB CDEM Group,Lifelines,Local Authorities & Group Contacts,Mapping Portal,MCDEM,Oil Spill,Recovery,Rural Fire,Training Support,Warning 24/7 Contacts,WCG Core,WCG Wider Membership,Welfare Sub-Function Responsible Agencies,Welfare Managers,INDIVIDUALS - NO GROUP
Charlie Beetham,Alan Daly,Alan Pearce,Cynthia Bowers,Charles Hakkaart,Brian Fox,Andrew Howe,Alison Prins,Ken Sutherland,Andrew Hickey,Annette Lunn,Alice Heather,Bill Dalton,Airways Briefing Office,Anne Redgrave,Grant Pechey,Alison Jessep,Chris Reed,Anthony Gouder,Group CDEM Advisor,Charlotte Drury,Bob Butler,Brendon Hutchinson,Duncan Barr,Dave Fulton,Earthquake Commission,Dave Odumesi,Data Over Radio DORT,Afterhours Call Centre (Trevor Bryce),Earthquake Commission,Alan Daly,Bill Dyck,Anne Parker,Alan Dick,Dan Heaps,Andrew Gass,Jordan Ellmers,Ashton Kirk,Alyth Crawford,Alison Prins,Airways Briefing Office,Alan Daly,Brent Stewart,Aimee Flanagan,Andrew Lo,Brenden Makinson,Ed Saathof,Anthony Chiappin,Alan Dibley,Alison Prins,Joanne Lawrence,Alison Prins,Andrew Hickey,Adrian Rurawhe
Alex McHardy,Alison Prins,Ainsley Alexander,Christine Scott,Bruce Pepperell,Adam Munro,Abbie Inwood,Andrew Hickey,Garth Cowie,Calvin Robinson,Bevan Chapman,Antoinette Campbell,Antoinette Campbell,Alex McHardy,Cheryl Nicholls,Etxt GECC Logistics & Support Contacts,Anne Redgrave,Belinda Riley,Annette Brosnan,GECC - Hawke's Bay,Allan Beer,Bill Littley,Bob Palmer,Anthony Gouder,Anthony Gouder,Duty-Officer-PoNL-Marine-Services,Craig Bedford,Datacom,Afterhours Call Centre (PNCC),Duty-Team-Manager-Communications,Andrew Hickey,Andrew King,Brendon Hutchinson,Alison Jessep,Daniel (Dan) Fake,Ian Lilburn,Matt Parker,Barbara McPherson,Ashton Kirk,Andrew Hickey,Alan Lyford,Alice Heather,Bruce Greathead,Abbie Inwood,Alison Lane,Carol Stanton,Brian Saunders,Aimee Flanagan,Afterhours Call Centre (PNCC),Annie Aranui,Alison Fraser,Annie Aranui,Ian Macdonald,Afterhours Call Centre (Trevor Bryce)
David Gordan,Gordon Foster,Alastair Wells,Denise Eagelsome,Chris Raine,Gary Bedford,Chris Killeen,Annie Aranui,Laura Vodanovich,Chris Lord,Christine Seymor,Bill McWatt,Brent Stewart,Andrew Lo,Colin Hosford,Group Logistics and support,Brendon Hutchinson,Esther-Amy Bate,Christine Robertson,Group ECC,Darin Underhill,Darrel Hall,Brian Peard,Gay Waikawa,Duncan Barr,EOC - CHBDC,Gary Ertel,David Walker,Duty-Officer-NZ-Army,EOC - Taupo,Andy Sloan,Brad Scott,Bruce Greathead,Allan Beer,Gavin Ide,Keith Peacock,Michael Taylor,Bill Littley,Barbara McPherson,Bill Dalton,Alex McHardy,Andrew Newman,Darrel Hall,Anita Walker,Andro Besich,Daniel McGuire,Gary Roselli,Dr Susan Jacobs,Alan Lyford,Brenton Greville,Andrew Cairns,Brenton Greville,Leonie Waayer,Aimee Flanagan
Gary Peacock,Graham Howse,Andrew Howe,,Clinton Naude,Ged Shirley,Chris Raine,Brendon Hutchinson,Neil Fergus,Danny Gough,Donald Parkinson,Craig Thew,Bruce Lochhead,Andrew McKie,Drew Broadley,Jack Frost,Bruce Lochhead,Etxt GECC Plan & Intel Contacts,Daphne Barraclough,Group ECC Manager,Dave Fulton,Dr Andrew Burns,Brian Wilkin,Graham Howse,Graham Howse,EOC - HBRC,Jason Larkin,Graham Jepson,Duty-Officer-Unison-Control-Room,GECC - Bay of Plenty,Brendon Hutchinson,Brenda Rosser,Bruce Kitto,Andrew Gass,Graham Edmondson (Idi),Mike Alebardi,Peter Davis,Brenda Crene,Brenda Crene,Craig Little,Andrew Friedlander,Antoinette Campbell,Michael Werrey,Barbara Eagle,Anna Madarasz-Smith,Dennis Hall,Gordon Foster,Glen Harkness,Alex McHardy,Cheryl Nicholls,Cherie Flintoff,Cherie Flintoff,Peter Grant,Alan Dibley
Mike Toogood,Ian Macdonald,Angela Reade,,Gary Bedford,Jack Steed,Derek Phyn,Chris Nicoll,Raewyn Bleakley,Darren Clark,Jana Rangooni,Etxt GECC Controllers,Bruce Monk,Bevan Chapman,Gavin Ide,John Hennessey,Cherie Flintoff,Gavin Ide,David Cairns,Group GIS,Dean Roughton,Dr Lester Calder,Bruno Saathof,James Baty,James Baty,GECC - Hawke's Bay,Nigel Brown,Group Began,Duty-Team-Manager-Communications,GECC - Manawatu/Wanganui,Bruce Kitto,Charles Hakkaart (Temporary),Captain Phil Norman,Anne Redgrave,Stu Davey,Simon Moffitt,Rob Waldron,Cameron Ormsby,Brenden Makinson,Fenton Wilson,Andrew Robinson,Bill Dalton,Noel Brock,Chris Killeen,Arnold Greaney,Etxt GECC Group Recovery Contacts,Ian Milllan,Grant Morris,Captain Phil Norman,Craig Kenah,Christine Renata,Cheryl Nicholls,,Alan McIntosh
Napier Tower,Jae Sutherland,Craig Hamilton,,Graeme MacDonald,Jane Olsen,Graeme MacDonald,Dr Nicholas Jones,,Debbie Gee,Jemma Dempsey,Graham Howse,Council Call (Library),Blue McMillan,GECC Controllers IMT,Kevin Sigglekow,Chris Nicoll,GECC - Hawke's Bay,Etxt GECC Public Information Team Contacts,Group Liaison,Etxt GECC Support HBRC EOC essential Staff for GECC Activation,Grant Duley,Carole Lillico,Jan Jessiman,Jordan Taylor,Gillian Mangin,Richard Thomas,Group Conferencing,Emergency Operations Centre,GECC - Waikato/Coromandle,Captain Phil Norman,David Brunsdon,Chris Nicoll,Annette Brosnan,,Te Kaha Hawaikirangi,,Charles Blanch,Chris Lord,Fergus Power,Andy Powell,Cherie Flintoff,Peter McClelland,Christine Seymor,B Smith,Garth Cowie,Kevin O?Connor,Ian Milllan,Duty Officer - Emergency Management,Jody Rarere,Craig Campbell,Christine Renata,,Alana Broadhead
Peter Vaughan,Jim Tetlow,Dan Neely,,Ian Macdonald,Richard Woods,Ian Lowe,Drew Broadley,,Diane Joyce,Judith Sawyer,James Baty,Craig Little,Brad Scott,Group Controller,Mark Heaney,Colin Hosford,Group Intelligence,Group Public Information Manager,Group Lifelines,Iain Maxwell,Grant Weaver,Cheryl Des Landes,Jordan Taylor,Kahl Olsen,Group CDEM Advisor,Sue Sowerby,Neil McKenzie,EOC - CHBDC,GECC - Wellington,Darren Clark,Dr Andrew Tait,Darren Clark,Anthony Gouder,,,,Dr Caroline McElnay,DHB-Emergency-Response -Sandra Bee,Ian Macdonald,Ben Knight,Colin Hosford,Peter Wakely,Diane Cope,Bill Dwyer,Gillian Mangin,Lindsay Golding,Jerry Gull,Duty-Manager-HBRC-,eTxT ECC Group Welfare Team,Debbie Cullen,Craig Kenah,,Ali McNabb
Phil Deadman,Lisa Pearse,Evan Lloyd,,John Dragicevich,Roger Ball,Janice Miller,Fenton Wilson,,Donna Moorcock,Justin Rae,Jamie Cox,Craig Thew,Bruce Govenlock,Group Intelligence,Meghan Gallen,Darrel Hall,Helen Codlin,Helen Shea,Group Services,James Powrie,Ian Tidy,Dan Foley,Karen Akuhata,Karen Akuhata,Group Controller,Viv Kerr,Peter Nally,EOC - DHB,GEOC,Dick Thornton-Grimes,Dr Graham Leonard,Dr Nicholas Jones,Belinda Riley,,,,EOC - DHB,Dr Caroline McElnay,Jae Sutherland,Bevan Chapman,Craig Little,Ray Wibrow,Duncan Henry,Brent Stephensen,Grant Gunning,Mike Webster,Martin MacLean,Duty-Officer-CHB-CDEM,Joel Browne,Debbie Sargison,Jae Sutherland,,Alyth Crawford
Tony Orr,Marcus Hayes-Jones,Gary Talbot,,John Foley,,Jon Edney,Fergus Power,,Drew Broadley,Kate Taylor,John Freeman,Dave Carlton,Bruce Lochhead,Group Logistics and support,Paul Drury,Debbie Phillips,Jenny Brown,Susan Wylie,Group Welfare,Joe Devonport,Jim Burne,Debbie Gee,Lisa Pearse,Lisa Pearse,Group ECC Manager,,Rob Simpson,EOC - Fire HB,NOC Service Centre,Dr Nicholas Jones,Dr Nicola Litchfield,Dick Thornton-Grimes,Brendan Powell,,,,HB Hospital,Dr Lester Calder,Jim Tetlow,Bill McWatt,Craig Thew,Rodney Booth,Grant Morris,Bridey White,Jo Martin,Richard Steele,Mazin Bahho,Duty-Officer-Eastland,Martin James,Dr Karen Phillips,Joanne Lawrence,,Anita Walker
,Sue Sowerby,GECC - Wellington,,Lee Hazlewood,,Michelle Griffiths,Ian MacDonald,,Ethna Renner,Kay Foley,Liz Lambert,David Gordan,Campbell Leckie,Group Operations and Liaison,Rob Simpson,Des Parkinson,John Bell,Tori Morrison,,Louise Hampton,Jo-Ann Jacobs,Denis Tatere,Meghan Gallen,Meghan Gallen,Group GIS,,,EOC - HBRC,Operations Desk,Fred Van Duuren ,Dr Philip Barnes,Francis [Matt] Broderick,Campbell Leckie,,,,HBDHB,George Massingham,John Freeman,Brendan Olsen,David Steed,Simon Nitz,Ian Wilson,Bryce Lawrence,John Lucas,Steve Turpin,Nigel V Roberts,Duty-Officer-NCC-CDEM,Miriam Squire,Gillian Mangin,Jody Rarere,,Anne Stevenson
,Teresa Simcox,James Thompson,,Michelle Griffiths,,Nichola Meehan,Inspector Tania Kura,,Graham Howse,Ken Morrison,Mike Maguire,Don Elers,Carole Lillico,Group Public Information Manager,,Dr Nicholas Jones,Raoul Oosterkamp,,,Manton Collings,Jock Hyde,Duty-Officer-NZ-Army,Monique Jeffares,Monique Jeffares,Group Intelligence,,,EOC - MPI HB,,Graham Howse,Dr Richard Gorman,Fred King,Charlotte Drury,,,,Iain Murray,Jo Waldon,Lawrence Yule,Brent Stewart,Dennis Morgan,,Jamie Shaw,Chade Drew,JP David Scott MNZM,,Ross G Brown,Duty-Officer-NZ-Army,Nicki Cross,Graeme Langford,Joel Browne,,Annette Carey
,Tim Allan,Jessica Hare,,Neil Cruickshank,,Rana Solomon,Jae Sutherland,,Helen Shea,Kevin Hercock,Paul O'Shaughnessy,Frank Nieuwland,Charlie Beetham,GroupRecovery,,Etxt GECC Liaison Reps,,,,Morehu Te Tomo,John Carter,Duty-Officer-Police-ComCen Wgtn,Sally Simpson,Rob Simpson,Group Liaison,,,EOC - NCC CDEM,,Ian Macdonald,Dr Richard Smith PhD,Gary Roselli,Chris Reed,,,,Ian Jarvis,Joanne Lynch,Lisa Pearce,Brett Way,Duty Officer - Emergency Management,,Jenna Rogers,Christine Robertson,Martin Birrell,,Royal NZ Police College,Duty-Officer-Police-ComCen Wgtn,Paul Faleono,Grant Gunning,Kerry Grapes,,Anthony Chiappin
,Trevor Mitchell,Jim Stephens,,Neville Reilly,,Sandra Miller,Jim Tetlow,,Ian Macdonald,Kevin Wagg,Peter Grant,Hastings Public Library,Christine Apperley,Helen Codlin,,Etxt GECC Operations Liaiison Staff,,,,Nicky van Pelt,Kaye Lafferty,Duty-Team-Manager-Communications,Stacey Rakiraki,Sally Simpson,Group Lifelines,,,EOC - NZTA HB,,Inspector Tania Kura,Dr Ursula Cochran,Gordon Foster,Christine Robertson,,,,Jenny Cawston,Laureen Sutherland,Liz Lambert,Brian Bartlett,Duty-Manager-HBRC-,,Jo Guard,Craig Petherick,Mike Barham,,Royal NZ Police College Library,Duty-Officer-PoNL-Marine-Services,Paula Murdoch,Jae Sutherland,Louise Stettner,,Aram Goes
,,Joe Kennedy,,Nichola Meehan,,Shane Briggs,Joanne Lawrence,,Kris McGehan,Marty Sharpe,Richard Munneke,Helen Codlin,Crisis-Management-Centre,Helen Shea,,Frank Nieuwland,,,,Renee Te Hau,Ken Mitchell,Francis [Matt] Broderick,Sue Sowerby,Sue Sowerby,Group Logistics and support,,,EOC - PoN,,Kenneth Cooper,Dr Wendy Saunders,Greg Brown,Council Call (Library),,,,Kathy Shanaghan,Liz Stockley,Peter Butler,Brian Potter,Duty-Officer-CHB-CDEM,,Jo Horrocks,Daniel McGuire,Nephi Hall,,Steve Glassey,Duty-Officer-Unison-Control-Room,Sandra Bee,Kerry Grapes,Martin James,,Ashton Kirk
,,Jon Mitchell,,Rana Solomon,,Teresa Simcox,John Freeman,,Lisa Pearse,NCMC PIM,Ross McLeod,Iain Maxwell,Dave Carlton,Lindsay Scott,,Group GIS,,,,Rob Simpson,Lance Titter,Gina Dwyer,Yemane Asmalash,Yemane Asmalash,Group Operations and Liaison,,,EOC - Tuai,,Lisa Pearse,Dr. Ken Gledhill,Inspector Tania Kura,Craig Goodier,,,,Keri Bibby,Malcom McGregor,Ross McLeod,Brian Wilkin,Duty-Officer-NCC-CDEM,,John Jennings,Daphne Barraclough,Nikola Bass,,,Duty-Officer-WDC-CDEM,Sandra Kersey,Louise Stettner,Miriam Squire,,Audrey Coomber
,,Lamorna Cooper,,Louise Bennett,,,Ken Foote,,Liz Lambert,Neill Gordon,Shawn McKinley,Ken Sutherland,Dave Fulton,Liz Lambert,,Group Liaison,,,,Stacey Rakiraki,Malcom Hart,Grant Duley,Yvette Mackay,Yvette Mackay,Group Public Information Manager,,,GECC - Hawke's Bay,,Marcus Hayes-Jones,Dr. Warren Gray,Lisa Pearse,Dan Heaps,,,,Laureen Sutherland,Maree Rohleder,Teresa Simcox,Bruce Govenlock,Duty-Officer-WDC-CDEM,,Jonathan Jull,Dayne Maxwell,Paul Walsh,,,Duty-Team-Manager-Communications,Stephanie Begley,Lynne Maguire,Natasha Carswell,,Barbara Eagle
,,Matthew Harrex,,,,,Lisa Pearce,,Mark Tregoweth,Pat Te Rangi,Steve Thrush,Lawrence Yule,David Gordan,Mark Heaney,,Group Lifelines,,,,Stu Davey,Maree Rohleder,Grant Weaver,,,Group Services,,,HB Welfare,,Murray Derbyshire,George Payne,Marcus Hayes-Jones,Daniel (Dan) Fake,,,,Liz Stockley,Michael O'Leary,Wayne Jack,Bruce Lochhead,Fenton Wilson,,Keith Evans,Deb J. E. Anthony,Peter Grant,,,GECC - Hawke's Bay,,Major Alister Irwin,Nicki Cross,,Barbara McPherson
,,Michelle Griffiths,,,,,Liz Lambert,,Monique Jeffares,Peter Fowler,TeArohanui Cook,Mark Boltman,David Norman,Paul Drury,,Group Operations and Liaison,,,,Trudy Kilkolly,Mike Webster,Hawke's Bay Fire Area Duty Executive,,,Group Welfare,,,Police Hastings,,Nigel Hall,Gill Jolly,Nigel Hall,Daphne Barraclough,,,,Phil Rankin,Nephi Hall,,Charlie Beetham,Fergus Power,,Leonie Waayer,Dezma McGregor,Rob Wilson,,,Genesis-Control@Tuai,,Maree Rohleder,Paul Faleono,,Barrie Wallace
,,Paddy Driver,,,,,Nigel Hall,,Robyn McLean,Rachel Wise,Tim Allan,Napier Public Library,Deanna Corbett,Peter Manson,,Group Services,,,,Wayne Wright,Peter Eastwood,Jim Burne,,,GroupRecovery,,,Police Napier,,Ross Gilbert,Hamish J Campbell,Noel Watson,Darin Underhill,,,,Ray Wibrow,Rose Smith,,Charlie Fergus,Gordon Foster,,Lifelines,Dick Hilton,Stephanie Begley,,,Group Staff,,Monique Heke,Paula Murdoch,,Bill Littley
,,Paul Walker,,,,,Oliver Postings,,,Radio Net 0800,Wayne Jack,National Public Library,Donald Parkinson,,,Group Welfare,,,,Yemane Asmalash,Ray Wibrow,John Plastow,,,HB Hospital,,,Tim Allan,,Sandra Bee,Hannah Brackley,Tim Allen,Darrel Hall,,,,Rose Smith,Ross Freebairn,,Chuck Dowdell,Graeme Hansen (Ganz),,Marika Luiso,Don Stephens,,,,HB Welfare,,Natasha Carswell,Sandra Bee,,Blair King
,,Phil Parker,,,,,Paul Baker,,,Rodger Clamp,,Paul O'Shaughnessy,Duty Officer,,,Hellen Munro,,,,,Ross Freebairn,Kath LeComte,,,HBDHB,,,,,Tim Allen,Hugh Cowan PhD,Trevor Mitchell,Darren Gorst (Gorsty),,,,Sharon Mason,Superintendent Sandra Venables,,Clive Reynolds,John Freeman,,NCMC PIM,Donald Scott,,,,HBRC Alert Staff,,Theresa Te Whaiti,Sandra Kersey,,Bob Butler
,,Rian Van Schalkwyk,,,,,Peter Grant,,,Scott McSloy,,Peter Manson,Duty-Forecaster-Marine,,,Hetty McLennan,,,,,Russell McCracken,Kris McGehan,,,Ken Sutherland,,,,,Tony Bates,Iain Dawe,Wayne Wright,Data Dial-up,,,,Tracy Fricker,William (Billy) Allan,,Colin McNair,John O'Shaughnessy,,Operations Desk,Dr. Kerri Morgan,,,,Major Alister Irwin,,Tony McCleary,Stephanie Begley,,Brenda Crene
,,Roger Nelson,,,,,Ross McLeod,,,Simon Buchanan,,Sarah Stuart-Black,Duty-Forecaster-MetService,,,Ian Millner,,,,,Sharon Mason,Marion Stuteley,,,Radio Net 0800,,,,,Trevor Mitchell,Ian Jarvis,,Datacom,,,,Wietske Cloo,,,Craig Muirhead,Ken Foote,,Paul Molloy,Eva Maxwell,,,,Simon Hird,,,,,Brendan Morris
,,Shane Briggs,,,,,Sandra Bee,,,Simon Law,,Sue Fargher,Duty-Forecaster-Weather,,,Inspector Tania Kura,,,,,Simon Nitz,Mark Boere,,,Wairoa District Council,,,,,,Ian Simpson,,Dave Fulton,,,,William (Billy) Allan,,,Crisis-Management-Centre,Lance Titter,,REMA Team in notes field,Franz Assenmacher,,,,,,,,,Brendan Nally
,,Trevor Farmer,,,,,Teresa Simcox,,,Stu Wilkinson,,Susan Wylie,Duty-Officer-MCDEM,,,Jason Larkin,,,,,Toni Little,Mark McGill,,,,,,,,,"James Goff, PhD",,Dave Paku,,,,,,,Daniel McGuire,Lawrence Yule,,Sara Leighton,Graeme Finlayson,,,,,,,,,Brenden Makinson
,,Victoria Randall,,,,,Trevor Mitchell,,,Sue White,,Taradale Public Library,Duty-Officer-NZ-Army,,,Kae Schlierike,,,,,Tony McKee,Moera Brown,,,,,,,,,Jayne Lapin,,Dave Pipe,,,,,,,Dave Pringle,Mike Maguire,,Sarah Stuart-Black,Grant Whitfield,,,,,,,,,Brent Cowie
,,,,,,,Wayne Jack,,,Trudy Godwin,,Waipukurau Public Library,Duty-Officer-Police-ComCen Wgtn,,,Linda Anderson,,,,,Tracee Te Huia,Noel Brock,,,,,,,,,JC Gaillard PhD,,David Cairns,,,,,,,David Fraser,Paul O'Shaughnessy,,Shane Bayley,Greg Bullot,,,,,,,,,Brian Faulknor
,,,,,,,,,,Vince Cholewa,,Wairoa Public Library,Duty-Officer-PoNL-Marine-Services,,,Liz Lambert,,,,,Vic Minter,Peter McClelland,,,,,,,,,John Callan,,David Carruth,,,,,,,David Gordan,Peter Butler,,Tane Woodley,Hans Rook,,,,,,,,,Brian Peard
,,,,,,,,,,Wade Sawyer,,,Duty-Officer-State-Highways,,,Major Alister Irwin,,,,,Wietske Cloo,Peter Vaughan,,,,,,,,,Julia Becker,,David Norman,,,,,,,David Hoffman,Peter Grant,,Vince Cholewa,Hayley Pearson,,,,,,,,,Brian Wilkin
,,,,,,,,,,,,,Duty-Officer-Unison-Control-Room,,,Michael O'Leary,,,,,Win Bennet,Phil Rankin,,,,,,,,,Kelvin Berryman,,David Zorn,,,,,,,David McBryde,Raoul Oosterkamp,,,Helen Jonas,,,,,,,,,Calvin Robinson
,,,,,,,,,,,,,Duty-Team-Manager-Communications,,,Mike Perry,,,,,,Police Hastings,,,,,,,,,Kim Wright,,Dean Roughton,,,,,,,Derek Wood,Richard Munneke,,,Helen Shea,,,,,,,,,Cameron Ormsby
,,,,,,,,,,,,,Francis [Matt] Broderick,,,Nigel Brown,,,,,,Police Napier,,,,,,,,,Kirsten Brown,,Debbie Phillips,,,,,,,Des Parkinson,Rita Sweetapple,,,Henry Van Tuel,,,,,,,,,Carol Stanton
,,,,,,,,,,,,,Frank Nieuwland,,,Nigel Hall,,,,,,Ross Gilbert,,,,,,,,,Margie Lowe,,Deborah Hewitt,,,,,,,Doug Tucker,Sam Hayward,,,Ian Lowe,,,,,,,,,Carolyn Hunt
,,,,,,,,,,,,,Gary Hausman,,,Noel Evans,,,,,,Sam Aberahama,,,,,,,,,Marion Gadsby,,Duty-Officer-Flood-Warning,,,,,,,Dr Lester Calder,Steve Thrush,,,Jacque Wilton,,,,,,,,,Catherine Boulton
,,,,,,,,,,,,,Gary Peacock,,,Oliver Postings,,,,,,Shift Manager,,,,,,,,,Mauri McSaveney,,EOC - HBRC,,,,,,,Duty Officer,TeArohanui Cook,,,Jillian Kennemore,,,,,,,,,Charles Blanch
,,,,,,,,,,,,,Gillian Mangin,,,Peter Manson,,,,,,Stuart Fleming,,,,,,,,,MetConnect,,Erin Petuha,,,,,,,Duty-Office-KiwiRail,Tim Carthew,,,Jim Guerin,,,,,,,,,Cherie Girvan
,,,,,,,,,,,,,Graeme Langford,,,Trevor Mitchell,,,,,,TBC,,,,,,,,,Murray Hicks,,Esther-Amy Bate,,,,,,,Duty-Officer-PoNL-Marine-Services,,,,Jim Lilley,,,,,,,,,Cherreen Exeter
,,,,,,,,,,,,,Hawke's Bay Fire Area Duty Executive,,,,,,,,,Toni Little,,,,,,,,,Murray Poulter,,Fenton Wilson,,,,,,,Fiona Horne,,,,Jim MacDonald,,,,,,,,,Chris Collins (EIT CE)
,,,,,,,,,,,,,Ian Lilburn,,,,,,,,,Tony Bates,,,,,,,,,Paul Walsh,,Fred King,,,,,,,Frank Nieuwland,,,,Jo Field,,,,,,,,,Chris Lord
,,,,,,,,,,,,,James Powrie,,,,,,,,,,,,,,,,,,Prof. David Johnston,,GECC - Hawke's Bay,,,,,,,Franz Assenmacher,,,,Joyce-Anne Raihania,,,,,,,,,Christine Seymor
,,,,,,,,,,,,,Jana Rangooni,,,,,,,,,,,,,,,,,,Prof. Douglas Paton,,Graham Edmondson (Idi),,,,,,,Garth Cassidy,,,,Kae Schlierike,,,,,,,,,Craig Bell
,,,,,,,,,,,,,Jay Parag,,,,,,,,,,,,,,,,,,Professor Bruce C Glavovic,,Grant Pechey,,,,,,,Garth Cowie,,,,Keith Manch,,,,,,,,,Dan Foley
,,,,,,,,,,,,,Jayne Lapin,,,,,,,,,,,,,,,,,,Professor Michael McWilliams,,Group Began,,,,,,,Gary Clode,,,,Keith Peacock,,,,,,,,,Daniel McGuire
,,,,,,,,,,,,,Jock Robinson,,,,,,,,,,,,,,,,,,Rob Bell,,Hamish Fraser,,,,,,,Gary Peacock,,,,Leigh Stevens,,,,,,,,,Dave Bishop
,,,,,,,,,,,,,John Armstrong,,,,,,,,,,,,,,,,,,Robert Langridge,,Heath Caldwell,,,,,,,Gas Operations Controller,,,,Louise Chilvers,,,,,,,,,David Coetzee
,,,,,,,,,,,,,Judith Sawyer,,,,,,,,,,,,,,,,,,Sally Dellow,,Helen Codlin,,,,,,,Geoff Thorburn,,,,Malcolm Smith,,,,,,,,,David Doole
,,,,,,,,,,,,,Karla Lee,,,,,,,,,,,,,,,,,,Sara Page,,Helen Shea,,,,,,,George Drysdale,,,,Mark Cavanagh,,,,,,,,,David Tipoki
,,,,,,,,,,,,,Keith Manch,,,,,,,,,,,,,,,,,,Sarah-Jayne McCurrach,,Heli Wade,,,,,,,Gerard van Veen,,,,Mat Fraser,,,,,,,,,Dean Moriarity
,,,,,,,,,,,,,Ken Holst,,,,,,,,,,,,,,,,,,William Power,,Hellen Munro,,,,,,,Gordon Hart,,,,Michael Lintott,,,,,,,,,Denis Tatere
,,,,,,,,,,,,,Ken Mitchell,,,,,,,,,,,,,,,,,,,,Hetty McLennan,,,,,,,Graeme Pinfold,,,,Mick Courtnell,,,,,,,,,Diane Cope
,,,,,,,,,,,,,Kevin England,,,,,,,,,,,,,,,,,,,,Iain Maxwell,,,,,,,Graham Alexander,,,,Mike Perry,,,,,,,,,Donna MacNichol
,,,,,,,,,,,,,Kim Coulson,,,,,,,,,,,,,,,,,,,,Ian Lilburn,,,,,,,Greg Bullot,,,,Morry Black,,,,,,,,,Dr Adele Whyte
,,,,,,,,,,,,,Marius Handcock,,,,,,,,,,,,,,,,,,,,Ian Millner,,,,,,,Greg Lorkin,,,,Mrs Julia Dambach,,,,,,,,,Dr Andrew Burns
,,,,,,,,,,,,,Mark Boltman,,,,,,,,,,,,,,,,,,,,James Powrie,,,,,,,Helen Montgomery,,,,Operations Room,,,,,,,,,Dr Andrew Tait
,,,,,,,,,,,,,Martin Birrell,,,,,,,,,,,,,,,,,,,,Jeff Cooke,,,,,,,Ian Clough,,,,Pam Turner,,,,,,,,,Dr Caroline McElnay
,,,,,,,,,,,,,Martin Moore,,,,,,,,,,,,,,,,,,,,Jennifer Matthys,,,,,,,Ian Waters,,,,Paul Houston,,,,,,,,,Dr Lester Calder
,,,,,,,,,,,,,Matt Todd,,,,,,,,,,,,,,,,,,,,Jenny Brown,,,,,,,Jack Frost,,,,Paul Vorwerk,,,,,,,,,Dr Philip Barnes
,,,,,,,,,,,,,Max Dixon,,,,,,,,,,,,,,,,,,,,Jo Rodgers,,,,,,,Jag Pannu,,,,Peter Frizzell,,,,,,,,,Dr Richard Smith PhD
,,,,,,,,,,,,,Michelle Butler,,,,,,,,,,,,,,,,,,,,Joe Devonport,,,,,,,Jamie Cox,,,,Peter McIntosh,,,,,,,,,Dr Susan Jacobs
,,,,,,,,,,,,,Mike Toogood,,,,,,,,,,,,,,,,,,,,Joe Genet,,,,,,,Jana Rangooni,,,,Phil Deadman,,,,,,,,,Dr Virgil Troy
,,,,,,,,,,,,,Milliscreen Bypass Hotline,,,,,,,,,,,,,,,,,,,,John Bell,,,,,,,Jarrid Lehndorf,,,,Rebecca Cuthbert,,,,,,,,,Dr. James Graham
,,,,,,,,,,,,,Murray Monaghan,,,,,,,,,,,,,,,,,,,,Kae Schlierike,,,,,,,Jason Doyle,,,,Rob Service,,,,,,,,,Dr.Sanja Sajatovic-Majstorovic
,,,,,,,,,,,,,Napier Tower,,,,,,,,,,,,,,,,,,,,Kahl Olsen,,,,,,,Jason King,,,,Rob Yarrall,,,,,,,,,Duncan Henry
,,,,,,,,,,,,,Niels Nikolaison,,,,,,,,,,,,,,,,,,,,Kim Coulson,,,,,,,Jason Larkin,,,,Rod Dickson,,,,,,,,,Duty-Officer-Health-Protection
,,,,,,,,,,,,,Operations Room,,,,,,,,,,,,,,,,,,,,Kolt Johnson,,,,,,,Jaun Park,,,,Roland Pomana,,,,,,,,,Duty-Officer-NZ-Army
,,,,,,,,,,,,,Paul Walsh,,,,,,,,,,,,,,,,,,,,Leeanne Hooper,,,,,,,Jay Parag,,,,Scott Read,,,,,,,,,Eloise Wallace
,,,,,,,,,,,,,Perry Smith,,,,,,,,,,,,,,,,,,,,Linda Anderson,,,,,,,Joe Faram,,,,Sophie Hazelhurst,,,,,,,,,EOC - DHB
,,,,,,,,,,,,,Peter Davis,,,,,,,,,,,,,,,,,,,,Louise Hampton,,,,,,,Johan Ehlers,,,,Steve Hart,,,,,,,,,Erika Hunt
,,,,,,,,,,,,,Peter Fowler,,,,,,,,,,,,,,,,,,,,Manton Collings,,,,,,,John Armstrong,,,,Sven Exeter,,,,,,,,,Faye White
,,,,,,,,,,,,,Peter McIntosh,,,,,,,,,,,,,,,,,,,,Margaret Carswell,,,,,,,John Geoghegan,,,,Tamsin Ward-Smith,,,,,,,,,Francis [Matt] Broderick
,,,,,,,,,,,,,Phil Deadman,,,,,,,,,,,,,,,,,,,,Mark Heaney,,,,,,,John Lee,,,,Toni Pressman,,,,,,,,,Frank Nieuwland
,,,,,,,,,,,,,Ramon Oosterkamp,,,,,,,,,,,,,,,,,,,,Martin Moore,,,,,,,Jon Schwass,,,,Tori Morrison,,,,,,,,,Gary Marshall
,,,,,,,,,,,,,Ray Mardon,,,,,,,,,,,,,,,,,,,,Maureen Drury,,,,,,,Joy Wilson,,,,Viv Bull,,,,,,,,,Gaynor Comley
,,,,,,,,,,,,,Rodger Clamp,,,,,,,,,,,,,,,,,,,,Megan Welsby,,,,,,,Justin Rae,,,,Wayne Larsen,,,,,,,,,George Massingham
,,,,,,,,,,,,,Ross Gilbert,,,,,,,,,,,,,,,,,,,,Mike Alebardi,,,,,,,Karen Bothwell,,,,,,,,,,,,,George Payne
,,,,,,,,,,,,,Scott McSloy,,,,,,,,,,,,,,,,,,,,Mike Mohi,,,,,,,Ken Holst,,,,,,,,,,,,,Gillian Mangin
,,,,,,,,,,,,,Shift Manager,,,,,,,,,,,,,,,,,,,,Mike Perry,,,,,,,Ken Mitchell,,,,,,,,,,,,,Glen Harkness
,,,,,,,,,,,,,Simon Law,,,,,,,,,,,,,,,,,,,,Morehu Te Tomo,,,,,,,Ken Sutherland,,,,,,,,,,,,,Gordon McDermott
,,,,,,,,,,,,,Tere Ngarouru,,,,,,,,,,,,,,,,,,,,Nicky van Pelt,,,,,,,Kevin England,,,,,,,,,,,,,Grant Gunning
,,,,,,,,,,,,,Tony Bates,,,,,,,,,,,,,,,,,,,,Norm Olsen,,,,,,,Kevin Hercock,,,,,,,,,,,,,Grant Morris
,,,,,,,,,,,,,Trevor Bryce,,,,,,,,,,,,,,,,,,,,Paul Atkins,,,,,,,Kevin Loasby,,,,,,,,,,,,,Greg Holland
,,,,,,,,,,,,,Trudy Kilkolly,,,,,,,,,,,,,,,,,,,,Paul Barrett,,,,,,,Kevin N Potroz,,,,,,,,,,,,,Guy Lethbridge
,,,,,,,,,,,,,Wade Sawyer,,,,,,,,,,,,,,,,,,,,Peter Beaven,,,,,,,Laddie Kuta,,,,,,,,,,,,,Hamish Shearer
,,,,,,,,,,,,,,,,,,,,,,,,,,,,,,,,,Peter Davis,,,,,,,Lance Titter,,,,,,,,,,,,,HB Hospital
,,,,,,,,,,,,,,,,,,,,,,,,,,,,,,,,,Peter Manson,,,,,,,Leisa Epplett,,,,,,,,,,,,,HBDHB
,,,,,,,,,,,,,,,,,,,,,,,,,,,,,,,,,Peter Nally,,,,,,,Les Glock,,,,,,,,,,,,,Helen McConnell
,,,,,,,,,,,,,,,,,,,,,,,,,,,,,,,,,Phil Hall,,,,,,,Lifelines,,,,,,,,,,,,,Helen O'Shaughnessy
,,,,,,,,,,,,,,,,,,,,,,,,,,,,,,,,,Renee Te Hau,,,,,,,Linda Broughton,,,,,,,,,,,,,Hine Flood
,,,,,,,,,,,,,,,,,,,,,,,,,,,,,,,,,Rex Graham,,,,,,,Lisa Roberts,,,,,,,,,,,,,Holly Brown
,,,,,,,,,,,,,,,,,,,,,,,,,,,,,,,,,Rick Barker,,,,,,,Louise Hunton,,,,,,,,,,,,,Hon Dr Jonathan Coleman
,,,,,,,,,,,,,,,,,,,,,,,,,,,,,,,,,Rob Christie,,,,,,,Maria Watson / Bronwyn Ward,,,,,,,,,,,,,Hon Nathan Guy
,,,,,,,,,,,,,,,,,,,,,,,,,,,,,,,,,Rob Simpson,,,,,,,Marius Handcock,,,,,,,,,,,,,Hon Tony Ryall
,,,,,,,,,,,,,,,,,,,,,,,,,,,,,,,,,Rob Waldron,,,,,,,Mark Boltman,,,,,,,,,,,,,Hon. Anne Tolley
,,,,,,,,,,,,,,,,,,,,,,,,,,,,,,,,,Sally Chandler,,,,,,,Mark Bramley,,,,,,,,,,,,,Hon. Chris Tremain
,,,,,,,,,,,,,,,,,,,,,,,,,,,,,,,,,Simon Moffitt,,,,,,,Martin Good,,,,,,,,,,,,,Hon. Craig Foss
,,,,,,,,,,,,,,,,,,,,,,,,,,,,,,,,,Stacey Rakiraki,,,,,,,Matt Todd,,,,,,,,,,,,,Howard Bott
,,,,,,,,,,,,,,,,,,,,,,,,,,,,,,,,,Stephen Cave,,,,,,,Matthew Rodwell,,,,,,,,,,,,,HQ JFNZ 24/7 Watchkeeper
,,,,,,,,,,,,,,,,,,,,,,,,,,,,,,,,,Stephen Mitchell,,,,,,,Max Dixon,,,,,,,,,,,,,Hugh Cowan PhD
,,,,,,,,,,,,,,,,,,,,,,,,,,,,,,,,,Stu Davey,,,,,,,Michael Adye,,,,,,,,,,,,,Iain Murray
,,,,,,,,,,,,,,,,,,,,,,,,,,,,,,,,,Susan Wylie,,,,,,,Michel de Vos,,,,,,,,,,,,,Ian Hendry
,,,,,,,,,,,,,,,,,,,,,,,,,,,,,,,,,Te Kaha Hawaikirangi,,,,,,,Mike Daly,,,,,,,,,,,,,Ian Jarvis
,,,,,,,,,,,,,,,,,,,,,,,,,,,,,,,,,Tom Belford,,,,,,,Mike Rush,,,,,,,,,,,,,Ian Simpson
,,,,,,,,,,,,,,,,,,,,,,,,,,,,,,,,,Tom Skerman,,,,,,,Mike Sheely,,,,,,,,,,,,,Ian Wilson
,,,,,,,,,,,,,,,,,,,,,,,,,,,,,,,,,Tori Morrison,,,,,,,Mike Toogood,,,,,,,,,,,,,Ian Wright
,,,,,,,,,,,,,,,,,,,,,,,,,,,,,,,,,Trudy Kilkolly,,,,,,,Mrs Helen Marsden,,,,,,,,,,,,,Irene Hunt
,,,,,,,,,,,,,,,,,,,,,,,,,,,,,,,,,Vicky Bloomer,,,,,,,Murray and Wade Sawyer,,,,,,,,,,,,,Jacqui Blakemore
,,,,,,,,,,,,,,,,,,,,,,,,,,,,,,,,,Vince Byrne,,,,,,,Murray Carman,,,,,,,,,,,,,James Cooper
,,,,,,,,,,,,,,,,,,,,,,,,,,,,,,,,,Viv Moule,,,,,,,Murray Dixon,,,,,,,,,,,,,"James Goff, PhD"
,,,,,,,,,,,,,,,,,,,,,,,,,,,,,,,,,Voice Mail Service,,,,,,,Murray Monaghan,,,,,,,,,,,,,James Rowe
,,,,,,,,,,,,,,,,,,,,,,,,,,,,,,,,,Wayne Wright,,,,,,,Napier Tower,,,,,,,,,,,,,James Tennent
,,,,,,,,,,,,,,,,,,,,,,,,,,,,,,,,,Yemane Asmalash,,,,,,,Neil Hubbard,,,,,,,,,,,,,Jamie Shaw
,,,,,,,,,,,,,,,,,,,,,,,,,,,,,,,,,Yvette Mackay,,,,,,,Nick Story,,,,,,,,,,,,,Janine Macdonald
,,,,,,,,,,,,,,,,,,,,,,,,,,,,,,,,,,,,,,,,Nicky Bradley,,,,,,,,,,,,,Jayne Lapin
,,,,,,,,,,,,,,,,,,,,,,,,,,,,,,,,,,,,,,,,Nigel Brown,,,,,,,,,,,,,Jenna Rogers
,,,,,,,,,,,,,,,,,,,,,,,,,,,,,,,,,,,,,,,,NOC Duty Manager (rostered position),,,,,,,,,,,,,Jenny McQueen
,,,,,,,,,,,,,,,,,,,,,,,,,,,,,,,,,,,,,,,,NOC Service Centre,,,,,,,,,,,,,Jenny Smith
,,,,,,,,,,,,,,,,,,,,,,,,,,,,,,,,,,,,,,,,Noel Brock,,,,,,,,,,,,,Jenny Wake
,,,,,,,,,,,,,,,,,,,,,,,,,,,,,,,,,,,,,,,,Noel Evans,,,,,,,,,,,,,Jerome Churchman
,,,,,,,,,,,,,,,,,,,,,,,,,,,,,,,,,,,,,,,,Norm Olsen,,,,,,,,,,,,,Jerry Gull
,,,,,,,,,,,,,,,,,,,,,,,,,,,,,,,,,,,,,,,,Oliver Postings,,,,,,,,,,,,,Jill Atkinson
,,,,,,,,,,,,,,,,,,,,,,,,,,,,,,,,,,,,,,,,Olivia Pierre,,,,,,,,,,,,,Jo Guard
,,,,,,,,,,,,,,,,,,,,,,,,,,,,,,,,,,,,,,,,Olwen Hyslop,,,,,,,,,,,,,Jo Horrocks
,,,,,,,,,,,,,,,,,,,,,,,,,,,,,,,,,,,,,,,,Pat Te Rangi,,,,,,,,,,,,,Jo Martin
,,,,,,,,,,,,,,,,,,,,,,,,,,,,,,,,,,,,,,,,Paul Bennetts,,,,,,,,,,,,,Jo Waldon
,,,,,,,,,,,,,,,,,,,,,,,,,,,,,,,,,,,,,,,,Paul Freeman,,,,,,,,,,,,,Joan Plowman
,,,,,,,,,,,,,,,,,,,,,,,,,,,,,,,,,,,,,,,,Paul Houston,,,,,,,,,,,,,Jo-Ann Jacobs
,,,,,,,,,,,,,,,,,,,,,,,,,,,,,,,,,,,,,,,,Paul Taylor,,,,,,,,,,,,,Joanne Lynch
,,,,,,,,,,,,,,,,,,,,,,,,,,,,,,,,,,,,,,,,Peter Cosgrove,,,,,,,,,,,,,Joanne Roe
,,,,,,,,,,,,,,,,,,,,,,,,,,,,,,,,,,,,,,,,Peter Fowler,,,,,,,,,,,,,Jo-anne Taute
,,,,,,,,,,,,,,,,,,,,,,,,,,,,,,,,,,,,,,,,Peter Kane,,,,,,,,,,,,,Jody Linton
,,,,,,,,,,,,,,,,,,,,,,,,,,,,,,,,,,,,,,,,Peter McClelland,,,,,,,,,,,,,John Hayes ONZM
,,,,,,,,,,,,,,,,,,,,,,,,,,,,,,,,,,,,,,,,Peter Saggers,,,,,,,,,,,,,John Jennings
,,,,,,,,,,,,,,,,,,,,,,,,,,,,,,,,,,,,,,,,Peter Vaughan,,,,,,,,,,,,,John Lovatt
,,,,,,,,,,,,,,,,,,,,,,,,,,,,,,,,,,,,,,,,Peter Wakely,,,,,,,,,,,,,Jon Davies
,,,,,,,,,,,,,,,,,,,,,,,,,,,,,,,,,,,,,,,,Phil Deadman,,,,,,,,,,,,,Jonathan Jull
,,,,,,,,,,,,,,,,,,,,,,,,,,,,,,,,,,,,,,,,Philip Johnstone,,,,,,,,,,,,,Jose C Borrero
,,,,,,,,,,,,,,,,,,,,,,,,,,,,,,,,,,,,,,,,Pilot Duty,,,,,,,,,,,,,Judy Bramley
,,,,,,,,,,,,,,,,,,,,,,,,,,,,,,,,,,,,,,,,Radio Net 0800,,,,,,,,,,,,,Judy Campbell
,,,,,,,,,,,,,,,,,,,,,,,,,,,,,,,,,,,,,,,,Raewyn Bleakley,,,,,,,,,,,,,Karen Bartlett
,,,,,,,,,,,,,,,,,,,,,,,,,,,,,,,,,,,,,,,,Ray Barlow,,,,,,,,,,,,,Kathy Grant
,,,,,,,,,,,,,,,,,,,,,,,,,,,,,,,,,,,,,,,,Rob Ruiter,,,,,,,,,,,,,Kathy Shanaghan
,,,,,,,,,,,,,,,,,,,,,,,,,,,,,,,,,,,,,,,,Robert Almond,,,,,,,,,,,,,Kay Lindstrom
,,,,,,,,,,,,,,,,,,,,,,,,,,,,,,,,,,,,,,,,Rodger Clamp,,,,,,,,,,,,,Kaye Lafferty
,,,,,,,,,,,,,,,,,,,,,,,,,,,,,,,,,,,,,,,,Rodney Booth,,,,,,,,,,,,,Keith Evans
,,,,,,,,,,,,,,,,,,,,,,,,,,,,,,,,,,,,,,,,Ryan Phipps,,,,,,,,,,,,,Ken Holst
,,,,,,,,,,,,,,,,,,,,,,,,,,,,,,,,,,,,,,,,Scott Breman,,,,,,,,,,,,,Ken Mitchell
,,,,,,,,,,,,,,,,,,,,,,,,,,,,,,,,,,,,,,,,Scott McSloy,,,,,,,,,,,,,Keri Bibby
,,,,,,,,,,,,,,,,,,,,,,,,,,,,,,,,,,,,,,,,Security Officer,,,,,,,,,,,,,Kevin Deacon
,,,,,,,,,,,,,,,,,,,,,,,,,,,,,,,,,,,,,,,,Shane Airey,,,,,,,,,,,,,Kevin Snee
,,,,,,,,,,,,,,,,,,,,,,,,,,,,,,,,,,,,,,,,Shaun Perrin,,,,,,,,,,,,,Kim Smith
,,,,,,,,,,,,,,,,,,,,,,,,,,,,,,,,,,,,,,,,Shift Manager,,,,,,,,,,,,,Kris McGehan
,,,,,,,,,,,,,,,,,,,,,,,,,,,,,,,,,,,,,,,,Simon Law,,,,,,,,,,,,,Laureen Sutherland
,,,,,,,,,,,,,,,,,,,,,,,,,,,,,,,,,,,,,,,,Stefan Yuile,,,,,,,,,,,,,Laurie Colvin Jr.
,,,,,,,,,,,,,,,,,,,,,,,,,,,,,,,,,,,,,,,,Stephen Parker,,,,,,,,,,,,,Leonie Waayer
,,,,,,,,,,,,,,,,,,,,,,,,,,,,,,,,,,,,,,,,Steve Bielby,,,,,,,,,,,,,Lifelines
,,,,,,,,,,,,,,,,,,,,,,,,,,,,,,,,,,,,,,,,Steve Topp,,,,,,,,,,,,,Liz Stockley
,,,,,,,,,,,,,,,,,,,,,,,,,,,,,,,,,,,,,,,,Steven Reay,,,,,,,,,,,,,Lydia Allan
,,,,,,,,,,,,,,,,,,,,,,,,,,,,,,,,,,,,,,,,Tevita Brugger,,,,,,,,,,,,,Major Albie Rothman
,,,,,,,,,,,,,,,,,,,,,,,,,,,,,,,,,,,,,,,,Tiny Whyte,,,,,,,,,,,,,Malcom McGregor
,,,,,,,,,,,,,,,,,,,,,,,,,,,,,,,,,,,,,,,,Tom Irwin,,,,,,,,,,,,,Malinda Meads
,,,,,,,,,,,,,,,,,,,,,,,,,,,,,,,,,,,,,,,,Tony Dench,,,,,,,,,,,,,Margaret Kilvington
,,,,,,,,,,,,,,,,,,,,,,,,,,,,,,,,,,,,,,,,Tony Mills,,,,,,,,,,,,,Marika Luiso
,,,,,,,,,,,,,,,,,,,,,,,,,,,,,,,,,,,,,,,,Tony Orr,,,,,,,,,,,,,Marilyn Scott
,,,,,,,,,,,,,,,,,,,,,,,,,,,,,,,,,,,,,,,,Trevor Hanson,,,,,,,,,,,,,Mark Clews
,,,,,,,,,,,,,,,,,,,,,,,,,,,,,,,,,,,,,,,,Wade Sawyer,,,,,,,,,,,,,Martin Birrell
,,,,,,,,,,,,,,,,,,,,,,,,,,,,,,,,,,,,,,,,Walter Rushbrook,,,,,,,,,,,,,Max Robertson
,,,,,,,,,,,,,,,,,,,,,,,,,,,,,,,,,,,,,,,,Wayne Billot,,,,,,,,,,,,,Mazin Bahho
,,,,,,,,,,,,,,,,,,,,,,,,,,,,,,,,,,,,,,,,,,,,,,,,,,,,,Meka Whaitiri
,,,,,,,,,,,,,,,,,,,,,,,,,,,,,,,,,,,,,,,,,,,,,,,,,,,,,Michael McCartney
,,,,,,,,,,,,,,,,,,,,,,,,,,,,,,,,,,,,,,,,,,,,,,,,,,,,,Michael Thompson
,,,,,,,,,,,,,,,,,,,,,,,,,,,,,,,,,,,,,,,,,,,,,,,,,,,,,Michele Daly
,,,,,,,,,,,,,,,,,,,,,,,,,,,,,,,,,,,,,,,,,,,,,,,,,,,,,Mike Baldwin
,,,,,,,,,,,,,,,,,,,,,,,,,,,,,,,,,,,,,,,,,,,,,,,,,,,,,Mike Walker
,,,,,,,,,,,,,,,,,,,,,,,,,,,,,,,,,,,,,,,,,,,,,,,,,,,,,Moera Brown
,,,,,,,,,,,,,,,,,,,,,,,,,,,,,,,,,,,,,,,,,,,,,,,,,,,,,Mojo Mathers
,,,,,,,,,,,,,,,,,,,,,,,,,,,,,,,,,,,,,,,,,,,,,,,,,,,,,Murray Brown
,,,,,,,,,,,,,,,,,,,,,,,,,,,,,,,,,,,,,,,,,,,,,,,,,,,,,Murray Douglas
,,,,,,,,,,,,,,,,,,,,,,,,,,,,,,,,,,,,,,,,,,,,,,,,,,,,,Murray Hicks
,,,,,,,,,,,,,,,,,,,,,,,,,,,,,,,,,,,,,,,,,,,,,,,,,,,,,Murray Mills
,,,,,,,,,,,,,,,,,,,,,,,,,,,,,,,,,,,,,,,,,,,,,,,,,,,,,Murray Poulter
,,,,,,,,,,,,,,,,,,,,,,,,,,,,,,,,,,,,,,,,,,,,,,,,,,,,,NAWAC
,,,,,,,,,,,,,,,,,,,,,,,,,,,,,,,,,,,,,,,,,,,,,,,,,,,,,NCMC PIM
,,,,,,,,,,,,,,,,,,,,,,,,,,,,,,,,,,,,,,,,,,,,,,,,,,,,,Neil Cleaver
,,,,,,,,,,,,,,,,,,,,,,,,,,,,,,,,,,,,,,,,,,,,,,,,,,,,,Nephi Hall
,,,,,,,,,,,,,,,,,,,,,,,,,,,,,,,,,,,,,,,,,,,,,,,,,,,,,Nia Belcher
,,,,,,,,,,,,,,,,,,,,,,,,,,,,,,,,,,,,,,,,,,,,,,,,,,,,,Nigel V Roberts
,,,,,,,,,,,,,,,,,,,,,,,,,,,,,,,,,,,,,,,,,,,,,,,,,,,,,Oliver Gibson
,,,,,,,,,,,,,,,,,,,,,,,,,,,,,,,,,,,,,,,,,,,,,,,,,,,,,Operations Desk
,,,,,,,,,,,,,,,,,,,,,,,,,,,,,,,,,,,,,,,,,,,,,,,,,,,,,Paul Gardner
,,,,,,,,,,,,,,,,,,,,,,,,,,,,,,,,,,,,,,,,,,,,,,,,,,,,,Paul Molloy
,,,,,,,,,,,,,,,,,,,,,,,,,,,,,,,,,,,,,,,,,,,,,,,,,,,,,Paul Motley
,,,,,,,,,,,,,,,,,,,,,,,,,,,,,,,,,,,,,,,,,,,,,,,,,,,,,Paul Walsh
,,,,,,,,,,,,,,,,,,,,,,,,,,,,,,,,,,,,,,,,,,,,,,,,,,,,,Peter Burrows
,,,,,,,,,,,,,,,,,,,,,,,,,,,,,,,,,,,,,,,,,,,,,,,,,,,,,Peter Jex-Blake
,,,,,,,,,,,,,,,,,,,,,,,,,,,,,,,,,,,,,,,,,,,,,,,,,,,,,Peter McClelland
,,,,,,,,,,,,,,,,,,,,,,,,,,,,,,,,,,,,,,,,,,,,,,,,,,,,,Peter R Wood
,,,,,,,,,,,,,,,,,,,,,,,,,,,,,,,,,,,,,,,,,,,,,,,,,,,,,Peter Scott
,,,,,,,,,,,,,,,,,,,,,,,,,,,,,,,,,,,,,,,,,,,,,,,,,,,,,Peter Wishart
,,,,,,,,,,,,,,,,,,,,,,,,,,,,,,,,,,,,,,,,,,,,,,,,,,,,,Phil Harman
,,,,,,,,,,,,,,,,,,,,,,,,,,,,,,,,,,,,,,,,,,,,,,,,,,,,,Philip McKay
,,,,,,,,,,,,,,,,,,,,,,,,,,,,,,,,,,,,,,,,,,,,,,,,,,,,,Police Hastings
,,,,,,,,,,,,,,,,,,,,,,,,,,,,,,,,,,,,,,,,,,,,,,,,,,,,,Police Napier
,,,,,,,,,,,,,,,,,,,,,,,,,,,,,,,,,,,,,,,,,,,,,,,,,,,,,Prof. Andrew Brooks Jr.
,,,,,,,,,,,,,,,,,,,,,,,,,,,,,,,,,,,,,,,,,,,,,,,,,,,,,Rachael Prendeville
,,,,,,,,,,,,,,,,,,,,,,,,,,,,,,,,,,,,,,,,,,,,,,,,,,,,,Rear Admiral Jack Steer
,,,,,,,,,,,,,,,,,,,,,,,,,,,,,,,,,,,,,,,,,,,,,,,,,,,,,REMA Team in notes field
,,,,,,,,,,,,,,,,,,,,,,,,,,,,,,,,,,,,,,,,,,,,,,,,,,,,,Rewi Joyce
,,,,,,,,,,,,,,,,,,,,,,,,,,,,,,,,,,,,,,,,,,,,,,,,,,,,,Richard (Dick) Kingston
,,,,,,,,,,,,,,,,,,,,,,,,,,,,,,,,,,,,,,,,,,,,,,,,,,,,,Richard Daniels
,,,,,,,,,,,,,,,,,,,,,,,,,,,,,,,,,,,,,,,,,,,,,,,,,,,,,Richard Murfitt
,,,,,,,,,,,,,,,,,,,,,,,,,,,,,,,,,,,,,,,,,,,,,,,,,,,,,Richard Reinen-Hamill
,,,,,,,,,,,,,,,,,,,,,,,,,,,,,,,,,,,,,,,,,,,,,,,,,,,,,Rick Wentz
,,,,,,,,,,,,,,,,,,,,,,,,,,,,,,,,,,,,,,,,,,,,,,,,,,,,,Rob Bell
,,,,,,,,,,,,,,,,,,,,,,,,,,,,,,,,,,,,,,,,,,,,,,,,,,,,,Rob Goldring
,,,,,,,,,,,,,,,,,,,,,,,,,,,,,,,,,,,,,,,,,,,,,,,,,,,,,Rob Johnson
,,,,,,,,,,,,,,,,,,,,,,,,,,,,,,,,,,,,,,,,,,,,,,,,,,,,,Rob van Voorthuysen
,,,,,,,,,,,,,,,,,,,,,,,,,,,,,,,,,,,,,,,,,,,,,,,,,,,,,Rob Williams
,,,,,,,,,,,,,,,,,,,,,,,,,,,,,,,,,,,,,,,,,,,,,,,,,,,,,Rob Wilson
,,,,,,,,,,,,,,,,,,,,,,,,,,,,,,,,,,,,,,,,,,,,,,,,,,,,,Robert Cameron
,,,,,,,,,,,,,,,,,,,,,,,,,,,,,,,,,,,,,,,,,,,,,,,,,,,,,Robin Douglas
,,,,,,,,,,,,,,,,,,,,,,,,,,,,,,,,,,,,,,,,,,,,,,,,,,,,,Roger Aranui
,,,,,,,,,,,,,,,,,,,,,,,,,,,,,,,,,,,,,,,,,,,,,,,,,,,,,Roger Bourne
,,,,,,,,,,,,,,,,,,,,,,,,,,,,,,,,,,,,,,,,,,,,,,,,,,,,,Roger Poland
,,,,,,,,,,,,,,,,,,,,,,,,,,,,,,,,,,,,,,,,,,,,,,,,,,,,,Rose Smith
,,,,,,,,,,,,,,,,,,,,,,,,,,,,,,,,,,,,,,,,,,,,,,,,,,,,,Ross Freebairn
,,,,,,,,,,,,,,,,,,,,,,,,,,,,,,,,,,,,,,,,,,,,,,,,,,,,,Ross Gilbert
,,,,,,,,,,,,,,,,,,,,,,,,,,,,,,,,,,,,,,,,,,,,,,,,,,,,,Rowan Little
,,,,,,,,,,,,,,,,,,,,,,,,,,,,,,,,,,,,,,,,,,,,,,,,,,,,,Royal NZ Police College
,,,,,,,,,,,,,,,,,,,,,,,,,,,,,,,,,,,,,,,,,,,,,,,,,,,,,Ry Stinton (Taiwhenua)
,,,,,,,,,,,,,,,,,,,,,,,,,,,,,,,,,,,,,,,,,,,,,,,,,,,,,Ryan Paulik
,,,,,,,,,,,,,,,,,,,,,,,,,,,,,,,,,,,,,,,,,,,,,,,,,,,,,Sally Jackson
,,,,,,,,,,,,,,,,,,,,,,,,,,,,,,,,,,,,,,,,,,,,,,,,,,,,,Sam Aberahama
,,,,,,,,,,,,,,,,,,,,,,,,,,,,,,,,,,,,,,,,,,,,,,,,,,,,,Sara Leighton
,,,,,,,,,,,,,,,,,,,,,,,,,,,,,,,,,,,,,,,,,,,,,,,,,,,,,Sara McBride
,,,,,,,,,,,,,,,,,,,,,,,,,,,,,,,,,,,,,,,,,,,,,,,,,,,,,Sarah Stuart-Black
,,,,,,,,,,,,,,,,,,,,,,,,,,,,,,,,,,,,,,,,,,,,,,,,,,,,,Sarah-Jayne McCurrach
,,,,,,,,,,,,,,,,,,,,,,,,,,,,,,,,,,,,,,,,,,,,,,,,,,,,,Sarwan Kumar
,,,,,,,,,,,,,,,,,,,,,,,,,,,,,,,,,,,,,,,,,,,,,,,,,,,,,Shane Bayley
,,,,,,,,,,,,,,,,,,,,,,,,,,,,,,,,,,,,,,,,,,,,,,,,,,,,,Shannon McNamara
,,,,,,,,,,,,,,,,,,,,,,,,,,,,,,,,,,,,,,,,,,,,,,,,,,,,,Sharleen Kingi
,,,,,,,,,,,,,,,,,,,,,,,,,,,,,,,,,,,,,,,,,,,,,,,,,,,,,Sharon Cousins-O'Donnell
,,,,,,,,,,,,,,,,,,,,,,,,,,,,,,,,,,,,,,,,,,,,,,,,,,,,,Sharon Mason
,,,,,,,,,,,,,,,,,,,,,,,,,,,,,,,,,,,,,,,,,,,,,,,,,,,,,Sheridan Gundry
,,,,,,,,,,,,,,,,,,,,,,,,,,,,,,,,,,,,,,,,,,,,,,,,,,,,,Sonia Anderson
,,,,,,,,,,,,,,,,,,,,,,,,,,,,,,,,,,,,,,,,,,,,,,,,,,,,,Stephanie Begley
,,,,,,,,,,,,,,,,,,,,,,,,,,,,,,,,,,,,,,,,,,,,,,,,,,,,,Stephen Bannister
,,,,,,,,,,,,,,,,,,,,,,,,,,,,,,,,,,,,,,,,,,,,,,,,,,,,,Stephen Brown
,,,,,,,,,,,,,,,,,,,,,,,,,,,,,,,,,,,,,,,,,,,,,,,,,,,,,Steve Glassey
,,,,,,,,,,,,,,,,,,,,,,,,,,,,,,,,,,,,,,,,,,,,,,,,,,,,,Stuart Fleming
,,,,,,,,,,,,,,,,,,,,,,,,,,,,,,,,,,,,,,,,,,,,,,,,,,,,,Tane Woodley
,,,,,,,,,,,,,,,,,,,,,,,,,,,,,,,,,,,,,,,,,,,,,,,,,,,,,Toni Little
,,,,,,,,,,,,,,,,,,,,,,,,,,,,,,,,,,,,,,,,,,,,,,,,,,,,,Tony McKee
,,,,,,,,,,,,,,,,,,,,,,,,,,,,,,,,,,,,,,,,,,,,,,,,,,,,,Tracee Te Huia
,,,,,,,,,,,,,,,,,,,,,,,,,,,,,,,,,,,,,,,,,,,,,,,,,,,,,Tracy Fricker
,,,,,,,,,,,,,,,,,,,,,,,,,,,,,,,,,,,,,,,,,,,,,,,,,,,,,Trevor Andrews
,,,,,,,,,,,,,,,,,,,,,,,,,,,,,,,,,,,,,,,,,,,,,,,,,,,,,Trevor Opie
,,,,,,,,,,,,,,,,,,,,,,,,,,,,,,,,,,,,,,,,,,,,,,,,,,,,,Vicki Crosswell
,,,,,,,,,,,,,,,,,,,,,,,,,,,,,,,,,,,,,,,,,,,,,,,,,,,,,Vince Cholewa
,,,,,,,,,,,,,,,,,,,,,,,,,,,,,,,,,,,,,,,,,,,,,,,,,,,,,Vivienne Mulligan
,,,,,,,,,,,,,,,,,,,,,,,,,,,,,,,,,,,,,,,,,,,,,,,,,,,,,Wayne Holton-Jeffreys
,,,,,,,,,,,,,,,,,,,,,,,,,,,,,,,,,,,,,,,,,,,,,,,,,,,,,Wayne Scott
,,,,,,,,,,,,,,,,,,,,,,,,,,,,,,,,,,,,,,,,,,,,,,,,,,,,,Will Foley
,,,,,,,,,,,,,,,,,,,,,,,,,,,,,,,,,,,,,,,,,,,,,,,,,,,,,William (Billy) Allan
,,,,,,,,,,,,,,,,,,,,,,,,,,,,,,,,,,,,,,,,,,,,,,,,,,,,,William Gray
,,,,,,,,,,,,,,,,,,,,,,,,,,,,,,,,,,,,,,,,,,,,,,,,,,,,,Win Bennet
,,,,,,,,,,,,,,,,,,,,,,,,,,,,,,,,,,,,,,,,,,,,,,,,,,,,,
,,,,,,,,,,,,,,,,,,,,,,,,,,,,,,,,,,,,,,,,,,,,,,,,,,,,,
,,,,,,,,,,,,,,,,,,,,,,,,,,,,,,,,,,,,,,,,,,,,,,,,,,,,,
,,,,,,,,,,,,,,,,,,,,,,,,,,,,,,,,,,,,,,,,,,,,,,,,,,,,,
,,,,,,,,,,,,,,,,,,,,,,,,,,,,,,,,,,,,,,,,,,,,,,,,,,,,,
,,,,,,,,,,,,,,,,,,,,,,,,,,,,,,,,,,,,,,,,,,,,,,,,,,,,,
,,,,,,,,,,,,,,,,,,,,,,,,,,,,,,,,,,,,,,,,,,,,,,,,,,,,,
,,,,,,,,,,,,,,,,,,,,,,,,,,,,,,,,,,,,,,,,,,,,,,,,,,,,,
,,,,,,,,,,,,,,,,,,,,,,,,,,,,,,,,,,,,,,,,,,,,,,,,,,,,,
,,,,,,,,,,,,,,,,,,,,,,,,,,,,,,,,,,,,,,,,,,,,,,,,,,,,,
,,,,,,,,,,,,,,,,,,,,,,,,,,,,,,,,,,,,,,,,,,,,,,,,,,,,,
,,,,,,,,,,,,,,,,,,,,,,,,,,,,,,,,,,,,,,,,,,,,,,,,,,,,,
,,,,,,,,,,,,,,,,,,,,,,,,,,,,,,,,,,,,,,,,,,,,,,,,,,,,,
,,,,,,,,,,,,,,,,,,,,,,,,,,,,,,,,,,,,,,,,,,,,,,,,,,,,,
,,,,,,,,,,,,,,,,,,,,,,,,,,,,,,,,,,,,,,,,,,,,,,,,,,,,,
,,,,,,,,,,,,,,,,,,,,,,,,,,,,,,,,,,,,,,,,,,,,,,,,,,,,,
,,,,,,,,,,,,,,,,,,,,,,,,,,,,,,,,,,,,,,,,,,,,,,,,,,,,,
,,,,,,,,,,,,,,,,,,,,,,,,,,,,,,,,,,,,,,,,,,,,,,,,,,,,,
,,,,,,,,,,,,,,,,,,,,,,,,,,,,,,,,,,,,,,,,,,,,,,,,,,,,,
,,,,,,,,,,,,,,,,,,,,,,,,,,,,,,,,,,,,,,,,,,,,,,,,,,,,,
,,,,,,,,,,,,,,,,,,,,,,,,,,,,,,,,,,,,,,,,,,,,,,,,,,,,,
,,,,,,,,,,,,,,,,,,,,,,,,,,,,,,,,,,,,,,,,,,,,,,,,,,,,,
,,,,,,,,,,,,,,,,,,,,,,,,,,,,,,,,,,,,,,,,,,,,,,,,,,,,,
,,,,,,,,,,,,,,,,,,,,,,,,,,,,,,,,,,,,,,,,,,,,,,,,,,,,,
,,,,,,,,,,,,,,,,,,,,,,,,,,,,,,,,,,,,,,,,,,,,,,,,,,,,,
,,,,,,,,,,,,,,,,,,,,,,,,,,,,,,,,,,,,,,,,,,,,,,,,,,,,,
,,,,,,,,,,,,,,,,,,,,,,,,,,,,,,,,,,,,,,,,,,,,,,,,,,,,,
,,,,,,,,,,,,,,,,,,,,,,,,,,,,,,,,,,,,,,,,,,,,,,,,,,,,,
,,,,,,,,,,,,,,,,,,,,,,,,,,,,,,,,,,,,,,,,,,,,,,,,,,,,,
,,,,,,,,,,,,,,,,,,,,,,,,,,,,,,,,,,,,,,,,,,,,,,,,,,,,,
,,,,,,,,,,,,,,,,,,,,,,,,,,,,,,,,,,,,,,,,,,,,,,,,,,,,,
,,,,,,,,,,,,,,,,,,,,,,,,,,,,,,,,,,,,,,,,,,,,,,,,,,,,,
,,,,,,,,,,,,,,,,,,,,,,,,,,,,,,,,,,,,,,,,,,,,,,,,,,,,,
,,,,,,,,,,,,,,,,,,,,,,,,,,,,,,,,,,,,,,,,,,,,,,,,,,,,,
,,,,,,,,,,,,,,,,,,,,,,,,,,,,,,,,,,,,,,,,,,,,,,,,,,,,,
,,,,,,,,,,,,,,,,,,,,,,,,,,,,,,,,,,,,,,,,,,,,,,,,,,,,,
,,,,,,,,,,,,,,,,,,,,,,,,,,,,,,,,,,,,,,,,,,,,,,,,,,,,,
,,,,,,,,,,,,,,,,,,,,,,,,,,,,,,,,,,,,,,,,,,,,,,,,,,,,,
,,,,,,,,,,,,,,,,,,,,,,,,,,,,,,,,,,,,,,,,,,,,,,,,,,,,,
,,,,,,,,,,,,,,,,,,,,,,,,,,,,,,,,,,,,,,,,,,,,,,,,,,,,,
,,,,,,,,,,,,,,,,,,,,,,,,,,,,,,,,,,,,,,,,,,,,,,,,,,,,,
,,,,,,,,,,,,,,,,,,,,,,,,,,,,,,,,,,,,,,,,,,,,,,,,,,,,,
,,,,,,,,,,,,,,,,,,,,,,,,,,,,,,,,,,,,,,,,,,,,,,,,,,,,,
,,,,,,,,,,,,,,,,,,,,,,,,,,,,,,,,,,,,,,,,,,,,,,,,,,,,,
,,,,,,,,,,,,,,,,,,,,,,,,,,,,,,,,,,,,,,,,,,,,,,,,,,,,,
,,,,,,,,,,,,,,,,,,,,,,,,,,,,,,,,,,,,,,,,,,,,,,,,,,,,,
,,,,,,,,,,,,,,,,,,,,,,,,,,,,,,,,,,,,,,,,,,,,,,,,,,,,,
,,,,,,,,,,,,,,,,,,,,,,,,,,,,,,,,,,,,,,,,,,,,,,,,,,,,,
,,,,,,,,,,,,,,,,,,,,,,,,,,,,,,,,,,,,,,,,,,,,,,,,,,,,,
,,,,,,,,,,,,,,,,,,,,,,,,,,,,,,,,,,,,,,,,,,,,,,,,,,,,,
,,,,,,,,,,,,,,,,,,,,,,,,,,,,,,,,,,,,,,,,,,,,,,,,,,,,,
,,,,,,,,,,,,,,,,,,,,,,,,,,,,,,,,,,,,,,,,,,,,,,,,,,,,,
,,,,,,,,,,,,,,,,,,,,,,,,,,,,,,,,,,,,,,,,,,,,,,,,,,,,,
,,,,,,,,,,,,,,,,,,,,,,,,,,,,,,,,,,,,,,,,,,,,,,,,,,,,,
,,,,,,,,,,,,,,,,,,,,,,,,,,,,,,,,,,,,,,,,,,,,,,,,,,,,,
,,,,,,,,,,,,,,,,,,,,,,,,,,,,,,,,,,,,,,,,,,,,,,,,,,,,,
,,,,,,,,,,,,,,,,,,,,,,,,,,,,,,,,,,,,,,,,,,,,,,,,,,,,,
,,,,,,,,,,,,,,,,,,,,,,,,,,,,,,,,,,,,,,,,,,,,,,,,,,,,,
,,,,,,,,,,,,,,,,,,,,,,,,,,,,,,,,,,,,,,,,,,,,,,,,,,,,,
,,,,,,,,,,,,,,,,,,,,,,,,,,,,,,,,,,,,,,,,,,,,,,,,,,,,,
,,,,,,,,,,,,,,,,,,,,,,,,,,,,,,,,,,,,,,,,,,,,,,,,,,,,,
,,,,,,,,,,,,,,,,,,,,,,,,,,,,,,,,,,,,,,,,,,,,,,,,,,,,,
,,,,,,,,,,,,,,,,,,,,,,,,,,,,,,,,,,,,,,,,,,,,,,,,,,,,,
,,,,,,,,,,,,,,,,,,,,,,,,,,,,,,,,,,,,,,,,,,,,,,,,,,,,,
,,,,,,,,,,,,,,,,,,,,,,,,,,,,,,,,,,,,,,,,,,,,,,,,,,,,,
,,,,,,,,,,,,,,,,,,,,,,,,,,,,,,,,,,,,,,,,,,,,,,,,,,,,,
,,,,,,,,,,,,,,,,,,,,,,,,,,,,,,,,,,,,,,,,,,,,,,,,,,,,,
,,,,,,,,,,,,,,,,,,,,,,,,,,,,,,,,,,,,,,,,,,,,,,,,,,,,,
,,,,,,,,,,,,,,,,,,,,,,,,,,,,,,,,,,,,,,,,,,,,,,,,,,,,,
,,,,,,,,,,,,,,,,,,,,,,,,,,,,,,,,,,,,,,,,,,,,,,,,,,,,,
,,,,,,,,,,,,,,,,,,,,,,,,,,,,,,,,,,,,,,,,,,,,,,,,,,,,,
,,,,,,,,,,,,,,,,,,,,,,,,,,,,,,,,,,,,,,,,,,,,,,,,,,,,,
,,,,,,,,,,,,,,,,,,,,,,,,,,,,,,,,,,,,,,,,,,,,,,,,,,,,,
,,,,,,,,,,,,,,,,,,,,,,,,,,,,,,,,,,,,,,,,,,,,,,,,,,,,,
,,,,,,,,,,,,,,,,,,,,,,,,,,,,,,,,,,,,,,,,,,,,,,,,,,,,,
,,,,,,,,,,,,,,,,,,,,,,,,,,,,,,,,,,,,,,,,,,,,,,,,,,,,,
,,,,,,,,,,,,,,,,,,,,,,,,,,,,,,,,,,,,,,,,,,,,,,,,,,,,,
,,,,,,,,,,,,,,,,,,,,,,,,,,,,,,,,,,,,,,,,,,,,,,,,,,,,,
,,,,,,,,,,,,,,,,,,,,,,,,,,,,,,,,,,,,,,,,,,,,,,,,,,,,,
,,,,,,,,,,,,,,,,,,,,,,,,,,,,,,,,,,,,,,,,,,,,,,,,,,,,,
,,,,,,,,,,,,,,,,,,,,,,,,,,,,,,,,,,,,,,,,,,,,,,,,,,,,,
,,,,,,,,,,,,,,,,,,,,,,,,,,,,,,,,,,,,,,,,,,,,,,,,,,,,,
,,,,,,,,,,,,,,,,,,,,,,,,,,,,,,,,,,,,,,,,,,,,,,,,,,,,,
,,,,,,,,,,,,,,,,,,,,,,,,,,,,,,,,,,,,,,,,,,,,,,,,,,,,,
,,,,,,,,,,,,,,,,,,,,,,,,,,,,,,,,,,,,,,,,,,,,,,,,,,,,,
,,,,,,,,,,,,,,,,,,,,,,,,,,,,,,,,,,,,,,,,,,,,,,,,,,,,,
,,,,,,,,,,,,,,,,,,,,,,,,,,,,,,,,,,,,,,,,,,,,,,,,,,,,,
,,,,,,,,,,,,,,,,,,,,,,,,,,,,,,,,,,,,,,,,,,,,,,,,,,,,,
,,,,,,,,,,,,,,,,,,,,,,,,,,,,,,,,,,,,,,,,,,,,,,,,,,,,,
,,,,,,,,,,,,,,,,,,,,,,,,,,,,,,,,,,,,,,,,,,,,,,,,,,,,,
,,,,,,,,,,,,,,,,,,,,,,,,,,,,,,,,,,,,,,,,,,,,,,,,,,,,,
,,,,,,,,,,,,,,,,,,,,,,,,,,,,,,,,,,,,,,,,,,,,,,,,,,,,,
,,,,,,,,,,,,,,,,,,,,,,,,,,,,,,,,,,,,,,,,,,,,,,,,,,,,,
,,,,,,,,,,,,,,,,,,,,,,,,,,,,,,,,,,,,,,,,,,,,,,,,,,,,,
,,,,,,,,,,,,,,,,,,,,,,,,,,,,,,,,,,,,,,,,,,,,,,,,,,,,,
,,,,,,,,,,,,,,,,,,,,,,,,,,,,,,,,,,,,,,,,,,,,,,,,,,,,,
,,,,,,,,,,,,,,,,,,,,,,,,,,,,,,,,,,,,,,,,,,,,,,,,,,,,,
,,,,,,,,,,,,,,,,,,,,,,,,,,,,,,,,,,,,,,,,,,,,,,,,,,,,,
,,,,,,,,,,,,,,,,,,,,,,,,,,,,,,,,,,,,,,,,,,,,,,,,,,,,,
,,,,,,,,,,,,,,,,,,,,,,,,,,,,,,,,,,,,,,,,,,,,,,,,,,,,,
,,,,,,,,,,,,,,,,,,,,,,,,,,,,,,,,,,,,,,,,,,,,,,,,,,,,,
,,,,,,,,,,,,,,,,,,,,,,,,,,,,,,,,,,,,,,,,,,,,,,,,,,,,,
,,,,,,,,,,,,,,,,,,,,,,,,,,,,,,,,,,,,,,,,,,,,,,,,,,,,,
,,,,,,,,,,,,,,,,,,,,,,,,,,,,,,,,,,,,,,,,,,,,,,,,,,,,,
,,,,,,,,,,,,,,,,,,,,,,,,,,,,,,,,,,,,,,,,,,,,,,,,,,,,,
,,,,,,,,,,,,,,,,,,,,,,,,,,,,,,,,,,,,,,,,,,,,,,,,,,,,,
,,,,,,,,,,,,,,,,,,,,,,,,,,,,,,,,,,,,,,,,,,,,,,,,,,,,,
,,,,,,,,,,,,,,,,,,,,,,,,,,,,,,,,,,,,,,,,,,,,,,,,,,,,,
,,,,,,,,,,,,,,,,,,,,,,,,,,,,,,,,,,,,,,,,,,,,,,,,,,,,,
,,,,,,,,,,,,,,,,,,,,,,,,,,,,,,,,,,,,,,,,,,,,,,,,,,,,,
,,,,,,,,,,,,,,,,,,,,,,,,,,,,,,,,,,,,,,,,,,,,,,,,,,,,,
,,,,,,,,,,,,,,,,,,,,,,,,,,,,,,,,,,,,,,,,,,,,,,,,,,,,,
,,,,,,,,,,,,,,,,,,,,,,,,,,,,,,,,,,,,,,,,,,,,,,,,,,,,,
,,,,,,,,,,,,,,,,,,,,,,,,,,,,,,,,,,,,,,,,,,,,,,,,,,,,,
,,,,,,,,,,,,,,,,,,,,,,,,,,,,,,,,,,,,,,,,,,,,,,,,,,,,,
,,,,,,,,,,,,,,,,,,,,,,,,,,,,,,,,,,,,,,,,,,,,,,,,,,,,,
,,,,,,,,,,,,,,,,,,,,,,,,,,,,,,,,,,,,,,,,,,,,,,,,,,,,,
,,,,,,,,,,,,,,,,,,,,,,,,,,,,,,,,,,,,,,,,,,,,,,,,,,,,,
,,,,,,,,,,,,,,,,,,,,,,,,,,,,,,,,,,,,,,,,,,,,,,,,,,,,,
,,,,,,,,,,,,,,,,,,,,,,,,,,,,,,,,,,,,,,,,,,,,,,,,,,,,,
,,,,,,,,,,,,,,,,,,,,,,,,,,,,,,,,,,,,,,,,,,,,,,,,,,,,,
,,,,,,,,,,,,,,,,,,,,,,,,,,,,,,,,,,,,,,,,,,,,,,,,,,,,,
,,,,,,,,,,,,,,,,,,,,,,,,,,,,,,,,,,,,,,,,,,,,,,,,,,,,,
,,,,,,,,,,,,,,,,,,,,,,,,,,,,,,,,,,,,,,,,,,,,,,,,,,,,,
,,,,,,,,,,,,,,,,,,,,,,,,,,,,,,,,,,,,,,,,,,,,,,,,,,,,,
,,,,,,,,,,,,,,,,,,,,,,,,,,,,,,,,,,,,,,,,,,,,,,,,,,,,,
,,,,,,,,,,,,,,,,,,,,,,,,,,,,,,,,,,,,,,,,,,,,,,,,,,,,,
,,,,,,,,,,,,,,,,,,,,,,,,,,,,,,,,,,,,,,,,,,,,,,,,,,,,,
,,,,,,,,,,,,,,,,,,,,,,,,,,,,,,,,,,,,,,,,,,,,,,,,,,,,,
,,,,,,,,,,,,,,,,,,,,,,,,,,,,,,,,,,,,,,,,,,,,,,,,,,,,,
,,,,,,,,,,,,,,,,,,,,,,,,,,,,,,,,,,,,,,,,,,,,,,,,,,,,,
,,,,,,,,,,,,,,,,,,,,,,,,,,,,,,,,,,,,,,,,,,,,,,,,,,,,,
,,,,,,,,,,,,,,,,,,,,,,,,,,,,,,,,,,,,,,,,,,,,,,,,,,,,,
,,,,,,,,,,,,,,,,,,,,,,,,,,,,,,,,,,,,,,,,,,,,,,,,,,,,,
,,,,,,,,,,,,,,,,,,,,,,,,,,,,,,,,,,,,,,,,,,,,,,,,,,,,,
,,,,,,,,,,,,,,,,,,,,,,,,,,,,,,,,,,,,,,,,,,,,,,,,,,,,,
,,,,,,,,,,,,,,,,,,,,,,,,,,,,,,,,,,,,,,,,,,,,,,,,,,,,,
,,,,,,,,,,,,,,,,,,,,,,,,,,,,,,,,,,,,,,,,,,,,,,,,,,,,,
,,,,,,,,,,,,,,,,,,,,,,,,,,,,,,,,,,,,,,,,,,,,,,,,,,,,,
,,,,,,,,,,,,,,,,,,,,,,,,,,,,,,,,,,,,,,,,,,,,,,,,,,,,,
,,,,,,,,,,,,,,,,,,,,,,,,,,,,,,,,,,,,,,,,,,,,,,,,,,,,,
,,,,,,,,,,,,,,,,,,,,,,,,,,,,,,,,,,,,,,,,,,,,,,,,,,,,,
,,,,,,,,,,,,,,,,,,,,,,,,,,,,,,,,,,,,,,,,,,,,,,,,,,,,,
,,,,,,,,,,,,,,,,,,,,,,,,,,,,,,,,,,,,,,,,,,,,,,,,,,,,,
,,,,,,,,,,,,,,,,,,,,,,,,,,,,,,,,,,,,,,,,,,,,,,,,,,,,,
,,,,,,,,,,,,,,,,,,,,,,,,,,,,,,,,,,,,,,,,,,,,,,,,,,,,,
,,,,,,,,,,,,,,,,,,,,,,,,,,,,,,,,,,,,,,,,,,,,,,,,,,,,,
,,,,,,,,,,,,,,,,,,,,,,,,,,,,,,,,,,,,,,,,,,,,,,,,,,,,,
,,,,,,,,,,,,,,,,,,,,,,,,,,,,,,,,,,,,,,,,,,,,,,,,,,,,,
,,,,,,,,,,,,,,,,,,,,,,,,,,,,,,,,,,,,,,,,,,,,,,,,,,,,,
,,,,,,,,,,,,,,,,,,,,,,,,,,,,,,,,,,,,,,,,,,,,,,,,,,,,,
,,,,,,,,,,,,,,,,,,,,,,,,,,,,,,,,,,,,,,,,,,,,,,,,,,,,,
,,,,,,,,,,,,,,,,,,,,,,,,,,,,,,,,,,,,,,,,,,,,,,,,,,,,,
,,,,,,,,,,,,,,,,,,,,,,,,,,,,,,,,,,,,,,,,,,,,,,,,,,,,,
,,,,,,,,,,,,,,,,,,,,,,,,,,,,,,,,,,,,,,,,,,,,,,,,,,,,,
,,,,,,,,,,,,,,,,,,,,,,,,,,,,,,,,,,,,,,,,,,,,,,,,,,,,,
,,,,,,,,,,,,,,,,,,,,,,,,,,,,,,,,,,,,,,,,,,,,,,,,,,,,,
,,,,,,,,,,,,,,,,,,,,,,,,,,,,,,,,,,,,,,,,,,,,,,,,,,,,,
,,,,,,,,,,,,,,,,,,,,,,,,,,,,,,,,,,,,,,,,,,,,,,,,,,,,,
,,,,,,,,,,,,,,,,,,,,,,,,,,,,,,,,,,,,,,,,,,,,,,,,,,,,,
,,,,,,,,,,,,,,,,,,,,,,,,,,,,,,,,,,,,,,,,,,,,,,,,,,,,,
,,,,,,,,,,,,,,,,,,,,,,,,,,,,,,,,,,,,,,,,,,,,,,,,,,,,,
,,,,,,,,,,,,,,,,,,,,,,,,,,,,,,,,,,,,,,,,,,,,,,,,,,,,,
,,,,,,,,,,,,,,,,,,,,,,,,,,,,,,,,,,,,,,,,,,,,,,,,,,,,,
,,,,,,,,,,,,,,,,,,,,,,,,,,,,,,,,,,,,,,,,,,,,,,,,,,,,,
,,,,,,,,,,,,,,,,,,,,,,,,,,,,,,,,,,,,,,,,,,,,,,,,,,,,,
,,,,,,,,,,,,,,,,,,,,,,,,,,,,,,,,,,,,,,,,,,,,,,,,,,,,,
,,,,,,,,,,,,,,,,,,,,,,,,,,,,,,,,,,,,,,,,,,,,,,,,,,,,,
,,,,,,,,,,,,,,,,,,,,,,,,,,,,,,,,,,,,,,,,,,,,,,,,,,,,,
,,,,,,,,,,,,,,,,,,,,,,,,,,,,,,,,,,,,,,,,,,,,,,,,,,,,,
,,,,,,,,,,,,,,,,,,,,,,,,,,,,,,,,,,,,,,,,,,,,,,,,,,,,,
,,,,,,,,,,,,,,,,,,,,,,,,,,,,,,,,,,,,,,,,,,,,,,,,,,,,,
,,,,,,,,,,,,,,,,,,,,,,,,,,,,,,,,,,,,,,,,,,,,,,,,,,,,,
,,,,,,,,,,,,,,,,,,,,,,,,,,,,,,,,,,,,,,,,,,,,,,,,,,,,,
,,,,,,,,,,,,,,,,,,,,,,,,,,,,,,,,,,,,,,,,,,,,,,,,,,,,,
,,,,,,,,,,,,,,,,,,,,,,,,,,,,,,,,,,,,,,,,,,,,,,,,,,,,,
,,,,,,,,,,,,,,,,,,,,,,,,,,,,,,,,,,,,,,,,,,,,,,,,,,,,,
,,,,,,,,,,,,,,,,,,,,,,,,,,,,,,,,,,,,,,,,,,,,,,,,,,,,,
,,,,,,,,,,,,,,,,,,,,,,,,,,,,,,,,,,,,,,,,,,,,,,,,,,,,,
,,,,,,,,,,,,,,,,,,,,,,,,,,,,,,,,,,,,,,,,,,,,,,,,,,,,,
,,,,,,,,,,,,,,,,,,,,,,,,,,,,,,,,,,,,,,,,,,,,,,,,,,,,,
,,,,,,,,,,,,,,,,,,,,,,,,,,,,,,,,,,,,,,,,,,,,,,,,,,,,,
,,,,,,,,,,,,,,,,,,,,,,,,,,,,,,,,,,,,,,,,,,,,,,,,,,,,,
,,,,,,,,,,,,,,,,,,,,,,,,,,,,,,,,,,,,,,,,,,,,,,,,,,,,,
,,,,,,,,,,,,,,,,,,,,,,,,,,,,,,,,,,,,,,,,,,,,,,,,,,,,,
,,,,,,,,,,,,,,,,,,,,,,,,,,,,,,,,,,,,,,,,,,,,,,,,,,,,,
,,,,,,,,,,,,,,,,,,,,,,,,,,,,,,,,,,,,,,,,,,,,,,,,,,,,,
,,,,,,,,,,,,,,,,,,,,,,,,,,,,,,,,,,,,,,,,,,,,,,,,,,,,,
,,,,,,,,,,,,,,,,,,,,,,,,,,,,,,,,,,,,,,,,,,,,,,,,,,,,,
,,,,,,,,,,,,,,,,,,,,,,,,,,,,,,,,,,,,,,,,,,,,,,,,,,,,,
,,,,,,,,,,,,,,,,,,,,,,,,,,,,,,,,,,,,,,,,,,,,,,,,,,,,,
,,,,,,,,,,,,,,,,,,,,,,,,,,,,,,,,,,,,,,,,,,,,,,,,,,,,,
,,,,,,,,,,,,,,,,,,,,,,,,,,,,,,,,,,,,,,,,,,,,,,,,,,,,,
,,,,,,,,,,,,,,,,,,,,,,,,,,,,,,,,,,,,,,,,,,,,,,,,,,,,,
,,,,,,,,,,,,,,,,,,,,,,,,,,,,,,,,,,,,,,,,,,,,,,,,,,,,,
,,,,,,,,,,,,,,,,,,,,,,,,,,,,,,,,,,,,,,,,,,,,,,,,,,,,,
,,,,,,,,,,,,,,,,,,,,,,,,,,,,,,,,,,,,,,,,,,,,,,,,,,,,,
,,,,,,,,,,,,,,,,,,,,,,,,,,,,,,,,,,,,,,,,,,,,,,,,,,,,,
,,,,,,,,,,,,,,,,,,,,,,,,,,,,,,,,,,,,,,,,,,,,,,,,,,,,,
,,,,,,,,,,,,,,,,,,,,,,,,,,,,,,,,,,,,,,,,,,,,,,,,,,,,,
,,,,,,,,,,,,,,,,,,,,,,,,,,,,,,,,,,,,,,,,,,,,,,,,,,,,,
,,,,,,,,,,,,,,,,,,,,,,,,,,,,,,,,,,,,,,,,,,,,,,,,,,,,,
,,,,,,,,,,,,,,,,,,,,,,,,,,,,,,,,,,,,,,,,,,,,,,,,,,,,,
,,,,,,,,,,,,,,,,,,,,,,,,,,,,,,,,,,,,,,,,,,,,,,,,,,,,,
,,,,,,,,,,,,,,,,,,,,,,,,,,,,,,,,,,,,,,,,,,,,,,,,,,,,,
,,,,,,,,,,,,,,,,,,,,,,,,,,,,,,,,,,,,,,,,,,,,,,,,,,,,,
,,,,,,,,,,,,,,,,,,,,,,,,,,,,,,,,,,,,,,,,,,,,,,,,,,,,,
,,,,,,,,,,,,,,,,,,,,,,,,,,,,,,,,,,,,,,,,,,,,,,,,,,,,,
,,,,,,,,,,,,,,,,,,,,,,,,,,,,,,,,,,,,,,,,,,,,,,,,,,,,,
,,,,,,,,,,,,,,,,,,,,,,,,,,,,,,,,,,,,,,,,,,,,,,,,,,,,,
,,,,,,,,,,,,,,,,,,,,,,,,,,,,,,,,,,,,,,,,,,,,,,,,,,,,,
,,,,,,,,,,,,,,,,,,,,,,,,,,,,,,,,,,,,,,,,,,,,,,,,,,,,,
,,,,,,,,,,,,,,,,,,,,,,,,,,,,,,,,,,,,,,,,,,,,,,,,,,,,,
,,,,,,,,,,,,,,,,,,,,,,,,,,,,,,,,,,,,,,,,,,,,,,,,,,,,,
,,,,,,,,,,,,,,,,,,,,,,,,,,,,,,,,,,,,,,,,,,,,,,,,,,,,,
,,,,,,,,,,,,,,,,,,,,,,,,,,,,,,,,,,,,,,,,,,,,,,,,,,,,,
,,,,,,,,,,,,,,,,,,,,,,,,,,,,,,,,,,,,,,,,,,,,,,,,,,,,,
,,,,,,,,,,,,,,,,,,,,,,,,,,,,,,,,,,,,,,,,,,,,,,,,,,,,,
,,,,,,,,,,,,,,,,,,,,,,,,,,,,,,,,,,,,,,,,,,,,,,,,,,,,,
,,,,,,,,,,,,,,,,,,,,,,,,,,,,,,,,,,,,,,,,,,,,,,,,,,,,,
,,,,,,,,,,,,,,,,,,,,,,,,,,,,,,,,,,,,,,,,,,,,,,,,,,,,,
,,,,,,,,,,,,,,,,,,,,,,,,,,,,,,,,,,,,,,,,,,,,,,,,,,,,,
,,,,,,,,,,,,,,,,,,,,,,,,,,,,,,,,,,,,,,,,,,,,,,,,,,,,,
,,,,,,,,,,,,,,,,,,,,,,,,,,,,,,,,,,,,,,,,,,,,,,,,,,,,,
,,,,,,,,,,,,,,,,,,,,,,,,,,,,,,,,,,,,,,,,,,,,,,,,,,,,,
,,,,,,,,,,,,,,,,,,,,,,,,,,,,,,,,,,,,,,,,,,,,,,,,,,,,,
,,,,,,,,,,,,,,,,,,,,,,,,,,,,,,,,,,,,,,,,,,,,,,,,,,,,,
,,,,,,,,,,,,,,,,,,,,,,,,,,,,,,,,,,,,,,,,,,,,,,,,,,,,,
,,,,,,,,,,,,,,,,,,,,,,,,,,,,,,,,,,,,,,,,,,,,,,,,,,,,,
,,,,,,,,,,,,,,,,,,,,,,,,,,,,,,,,,,,,,,,,,,,,,,,,,,,,,
,,,,,,,,,,,,,,,,,,,,,,,,,,,,,,,,,,,,,,,,,,,,,,,,,,,,,
,,,,,,,,,,,,,,,,,,,,,,,,,,,,,,,,,,,,,,,,,,,,,,,,,,,,,
,,,,,,,,,,,,,,,,,,,,,,,,,,,,,,,,,,,,,,,,,,,,,,,,,,,,,
,,,,,,,,,,,,,,,,,,,,,,,,,,,,,,,,,,,,,,,,,,,,,,,,,,,,,
,,,,,,,,,,,,,,,,,,,,,,,,,,,,,,,,,,,,,,,,,,,,,,,,,,,,,
,,,,,,,,,,,,,,,,,,,,,,,,,,,,,,,,,,,,,,,,,,,,,,,,,,,,,
,,,,,,,,,,,,,,,,,,,,,,,,,,,,,,,,,,,,,,,,,,,,,,,,,,,,,
,,,,,,,,,,,,,,,,,,,,,,,,,,,,,,,,,,,,,,,,,,,,,,,,,,,,,
,,,,,,,,,,,,,,,,,,,,,,,,,,,,,,,,,,,,,,,,,,,,,,,,,,,,,
,,,,,,,,,,,,,,,,,,,,,,,,,,,,,,,,,,,,,,,,,,,,,,,,,,,,,
,,,,,,,,,,,,,,,,,,,,,,,,,,,,,,,,,,,,,,,,,,,,,,,,,,,,,
,,,,,,,,,,,,,,,,,,,,,,,,,,,,,,,,,,,,,,,,,,,,,,,,,,,,,
,,,,,,,,,,,,,,,,,,,,,,,,,,,,,,,,,,,,,,,,,,,,,,,,,,,,,
,,,,,,,,,,,,,,,,,,,,,,,,,,,,,,,,,,,,,,,,,,,,,,,,,,,,,
,,,,,,,,,,,,,,,,,,,,,,,,,,,,,,,,,,,,,,,,,,,,,,,,,,,,,
,,,,,,,,,,,,,,,,,,,,,,,,,,,,,,,,,,,,,,,,,,,,,,,,,,,,,
,,,,,,,,,,,,,,,,,,,,,,,,,,,,,,,,,,,,,,,,,,,,,,,,,,,,,
,,,,,,,,,,,,,,,,,,,,,,,,,,,,,,,,,,,,,,,,,,,,,,,,,,,,,
,,,,,,,,,,,,,,,,,,,,,,,,,,,,,,,,,,,,,,,,,,,,,,,,,,,,,
,,,,,,,,,,,,,,,,,,,,,,,,,,,,,,,,,,,,,,,,,,,,,,,,,,,,,
,,,,,,,,,,,,,,,,,,,,,,,,,,,,,,,,,,,,,,,,,,,,,,,,,,,,,
,,,,,,,,,,,,,,,,,,,,,,,,,,,,,,,,,,,,,,,,,,,,,,,,,,,,,
,,,,,,,,,,,,,,,,,,,,,,,,,,,,,,,,,,,,,,,,,,,,,,,,,,,,,
,,,,,,,,,,,,,,,,,,,,,,,,,,,,,,,,,,,,,,,,,,,,,,,,,,,,,
,,,,,,,,,,,,,,,,,,,,,,,,,,,,,,,,,,,,,,,,,,,,,,,,,,,,,
,,,,,,,,,,,,,,,,,,,,,,,,,,,,,,,,,,,,,,,,,,,,,,,,,,,,,
,,,,,,,,,,,,,,,,,,,,,,,,,,,,,,,,,,,,,,,,,,,,,,,,,,,,,
,,,,,,,,,,,,,,,,,,,,,,,,,,,,,,,,,,,,,,,,,,,,,,,,,,,,,
,,,,,,,,,,,,,,,,,,,,,,,,,,,,,,,,,,,,,,,,,,,,,,,,,,,,,
,,,,,,,,,,,,,,,,,,,,,,,,,,,,,,,,,,,,,,,,,,,,,,,,,,,,,
,,,,,,,,,,,,,,,,,,,,,,,,,,,,,,,,,,,,,,,,,,,,,,,,,,,,,
,,,,,,,,,,,,,,,,,,,,,,,,,,,,,,,,,,,,,,,,,,,,,,,,,,,,,
,,,,,,,,,,,,,,,,,,,,,,,,,,,,,,,,,,,,,,,,,,,,,,,,,,,,,
,,,,,,,,,,,,,,,,,,,,,,,,,,,,,,,,,,,,,,,,,,,,,,,,,,,,,
,,,,,,,,,,,,,,,,,,,,,,,,,,,,,,,,,,,,,,,,,,,,,,,,,,,,,
,,,,,,,,,,,,,,,,,,,,,,,,,,,,,,,,,,,,,,,,,,,,,,,,,,,,,
,,,,,,,,,,,,,,,,,,,,,,,,,,,,,,,,,,,,,,,,,,,,,,,,,,,,,
,,,,,,,,,,,,,,,,,,,,,,,,,,,,,,,,,,,,,,,,,,,,,,,,,,,,,
,,,,,,,,,,,,,,,,,,,,,,,,,,,,,,,,,,,,,,,,,,,,,,,,,,,,,
,,,,,,,,,,,,,,,,,,,,,,,,,,,,,,,,,,,,,,,,,,,,,,,,,,,,,
,,,,,,,,,,,,,,,,,,,,,,,,,,,,,,,,,,,,,,,,,,,,,,,,,,,,,
,,,,,,,,,,,,,,,,,,,,,,,,,,,,,,,,,,,,,,,,,,,,,,,,,,,,,
,,,,,,,,,,,,,,,,,,,,,,,,,,,,,,,,,,,,,,,,,,,,,,,,,,,,,
,,,,,,,,,,,,,,,,,,,,,,,,,,,,,,,,,,,,,,,,,,,,,,,,,,,,,
,,,,,,,,,,,,,,,,,,,,,,,,,,,,,,,,,,,,,,,,,,,,,,,,,,,,,
,,,,,,,,,,,,,,,,,,,,,,,,,,,,,,,,,,,,,,,,,,,,,,,,,,,,,
,,,,,,,,,,,,,,,,,,,,,,,,,,,,,,,,,,,,,,,,,,,,,,,,,,,,,
,,,,,,,,,,,,,,,,,,,,,,,,,,,,,,,,,,,,,,,,,,,,,,,,,,,,,
,,,,,,,,,,,,,,,,,,,,,,,,,,,,,,,,,,,,,,,,,,,,,,,,,,,,,
,,,,,,,,,,,,,,,,,,,,,,,,,,,,,,,,,,,,,,,,,,,,,,,,,,,,,
,,,,,,,,,,,,,,,,,,,,,,,,,,,,,,,,,,,,,,,,,,,,,,,,,,,,,
,,,,,,,,,,,,,,,,,,,,,,,,,,,,,,,,,,,,,,,,,,,,,,,,,,,,,
,,,,,,,,,,,,,,,,,,,,,,,,,,,,,,,,,,,,,,,,,,,,,,,,,,,,,
,,,,,,,,,,,,,,,,,,,,,,,,,,,,,,,,,,,,,,,,,,,,,,,,,,,,,
,,,,,,,,,,,,,,,,,,,,,,,,,,,,,,,,,,,,,,,,,,,,,,,,,,,,,
,,,,,,,,,,,,,,,,,,,,,,,,,,,,,,,,,,,,,,,,,,,,,,,,,,,,,
,,,,,,,,,,,,,,,,,,,,,,,,,,,,,,,,,,,,,,,,,,,,,,,,,,,,,
,,,,,,,,,,,,,,,,,,,,,,,,,,,,,,,,,,,,,,,,,,,,,,,,,,,,,
,,,,,,,,,,,,,,,,,,,,,,,,,,,,,,,,,,,,,,,,,,,,,,,,,,,,,
,,,,,,,,,,,,,,,,,,,,,,,,,,,,,,,,,,,,,,,,,,,,,,,,,,,,,
,,,,,,,,,,,,,,,,,,,,,,,,,,,,,,,,,,,,,,,,,,,,,,,,,,,,,
,,,,,,,,,,,,,,,,,,,,,,,,,,,,,,,,,,,,,,,,,,,,,,,,,,,,,
,,,,,,,,,,,,,,,,,,,,,,,,,,,,,,,,,,,,,,,,,,,,,,,,,,,,,
,,,,,,,,,,,,,,,,,,,,,,,,,,,,,,,,,,,,,,,,,,,,,,,,,,,,,
,,,,,,,,,,,,,,,,,,,,,,,,,,,,,,,,,,,,,,,,,,,,,,,,,,,,,
,,,,,,,,,,,,,,,,,,,,,,,,,,,,,,,,,,,,,,,,,,,,,,,,,,,,,
,,,,,,,,,,,,,,,,,,,,,,,,,,,,,,,,,,,,,,,,,,,,,,,,,,,,,
,,,,,,,,,,,,,,,,,,,,,,,,,,,,,,,,,,,,,,,,,,,,,,,,,,,,,
,,,,,,,,,,,,,,,,,,,,,,,,,,,,,,,,,,,,,,,,,,,,,,,,,,,,,
,,,,,,,,,,,,,,,,,,,,,,,,,,,,,,,,,,,,,,,,,,,,,,,,,,,,,
,,,,,,,,,,,,,,,,,,,,,,,,,,,,,,,,,,,,,,,,,,,,,,,,,,,,,
,,,,,,,,,,,,,,,,,,,,,,,,,,,,,,,,,,,,,,,,,,,,,,,,,,,,,
,,,,,,,,,,,,,,,,,,,,,,,,,,,,,,,,,,,,,,,,,,,,,,,,,,,,,
,,,,,,,,,,,,,,,,,,,,,,,,,,,,,,,,,,,,,,,,,,,,,,,,,,,,,
,,,,,,,,,,,,,,,,,,,,,,,,,,,,,,,,,,,,,,,,,,,,,,,,,,,,,
,,,,,,,,,,,,,,,,,,,,,,,,,,,,,,,,,,,,,,,,,,,,,,,,,,,,,
,,,,,,,,,,,,,,,,,,,,,,,,,,,,,,,,,,,,,,,,,,,,,,,,,,,,,
,,,,,,,,,,,,,,,,,,,,,,,,,,,,,,,,,,,,,,,,,,,,,,,,,,,,,
,,,,,,,,,,,,,,,,,,,,,,,,,,,,,,,,,,,,,,,,,,,,,,,,,,,,,
,,,,,,,,,,,,,,,,,,,,,,,,,,,,,,,,,,,,,,,,,,,,,,,,,,,,,
,,,,,,,,,,,,,,,,,,,,,,,,,,,,,,,,,,,,,,,,,,,,,,,,,,,,,
,,,,,,,,,,,,,,,,,,,,,,,,,,,,,,,,,,,,,,,,,,,,,,,,,,,,,
,,,,,,,,,,,,,,,,,,,,,,,,,,,,,,,,,,,,,,,,,,,,,,,,,,,,,
,,,,,,,,,,,,,,,,,,,,,,,,,,,,,,,,,,,,,,,,,,,,,,,,,,,,,
,,,,,,,,,,,,,,,,,,,,,,,,,,,,,,,,,,,,,,,,,,,,,,,,,,,,,
,,,,,,,,,,,,,,,,,,,,,,,,,,,,,,,,,,,,,,,,,,,,,,,,,,,,,
,,,,,,,,,,,,,,,,,,,,,,,,,,,,,,,,,,,,,,,,,,,,,,,,,,,,,
,,,,,,,,,,,,,,,,,,,,,,,,,,,,,,,,,,,,,,,,,,,,,,,,,,,,,
,,,,,,,,,,,,,,,,,,,,,,,,,,,,,,,,,,,,,,,,,,,,,,,,,,,,,
,,,,,,,,,,,,,,,,,,,,,,,,,,,,,,,,,,,,,,,,,,,,,,,,,,,,,
,,,,,,,,,,,,,,,,,,,,,,,,,,,,,,,,,,,,,,,,,,,,,,,,,,,,,
,,,,,,,,,,,,,,,,,,,,,,,,,,,,,,,,,,,,,,,,,,,,,,,,,,,,,
,,,,,,,,,,,,,,,,,,,,,,,,,,,,,,,,,,,,,,,,,,,,,,,,,,,,,
,,,,,,,,,,,,,,,,,,,,,,,,,,,,,,,,,,,,,,,,,,,,,,,,,,,,,
,,,,,,,,,,,,,,,,,,,,,,,,,,,,,,,,,,,,,,,,,,,,,,,,,,,,,
,,,,,,,,,,,,,,,,,,,,,,,,,,,,,,,,,,,,,,,,,,,,,,,,,,,,,
,,,,,,,,,,,,,,,,,,,,,,,,,,,,,,,,,,,,,,,,,,,,,,,,,,,,,
,,,,,,,,,,,,,,,,,,,,,,,,,,,,,,,,,,,,,,,,,,,,,,,,,,,,,
,,,,,,,,,,,,,,,,,,,,,,,,,,,,,,,,,,,,,,,,,,,,,,,,,,,,,
,,,,,,,,,,,,,,,,,,,,,,,,,,,,,,,,,,,,,,,,,,,,,,,,,,,,,
,,,,,,,,,,,,,,,,,,,,,,,,,,,,,,,,,,,,,,,,,,,,,,,,,,,,,
,,,,,,,,,,,,,,,,,,,,,,,,,,,,,,,,,,,,,,,,,,,,,,,,,,,,,
,,,,,,,,,,,,,,,,,,,,,,,,,,,,,,,,,,,,,,,,,,,,,,,,,,,,,
,,,,,,,,,,,,,,,,,,,,,,,,,,,,,,,,,,,,,,,,,,,,,,,,,,,,,
,,,,,,,,,,,,,,,,,,,,,,,,,,,,,,,,,,,,,,,,,,,,,,,,,,,,,
,,,,,,,,,,,,,,,,,,,,,,,,,,,,,,,,,,,,,,,,,,,,,,,,,,,,,
,,,,,,,,,,,,,,,,,,,,,,,,,,,,,,,,,,,,,,,,,,,,,,,,,,,,,
,,,,,,,,,,,,,,,,,,,,,,,,,,,,,,,,,,,,,,,,,,,,,,,,,,,,,
,,,,,,,,,,,,,,,,,,,,,,,,,,,,,,,,,,,,,,,,,,,,,,,,,,,,,
,,,,,,,,,,,,,,,,,,,,,,,,,,,,,,,,,,,,,,,,,,,,,,,,,,,,,
,,,,,,,,,,,,,,,,,,,,,,,,,,,,,,,,,,,,,,,,,,,,,,,,,,,,,
,,,,,,,,,,,,,,,,,,,,,,,,,,,,,,,,,,,,,,,,,,,,,,,,,,,,,
,,,,,,,,,,,,,,,,,,,,,,,,,,,,,,,,,,,,,,,,,,,,,,,,,,,,,
,,,,,,,,,,,,,,,,,,,,,,,,,,,,,,,,,,,,,,,,,,,,,,,,,,,,,
,,,,,,,,,,,,,,,,,,,,,,,,,,,,,,,,,,,,,,,,,,,,,,,,,,,,,
,,,,,,,,,,,,,,,,,,,,,,,,,,,,,,,,,,,,,,,,,,,,,,,,,,,,,
,,,,,,,,,,,,,,,,,,,,,,,,,,,,,,,,,,,,,,,,,,,,,,,,,,,,,
,,,,,,,,,,,,,,,,,,,,,,,,,,,,,,,,,,,,,,,,,,,,,,,,,,,,,
,,,,,,,,,,,,,,,,,,,,,,,,,,,,,,,,,,,,,,,,,,,,,,,,,,,,,
,,,,,,,,,,,,,,,,,,,,,,,,,,,,,,,,,,,,,,,,,,,,,,,,,,,,,
,,,,,,,,,,,,,,,,,,,,,,,,,,,,,,,,,,,,,,,,,,,,,,,,,,,,,
,,,,,,,,,,,,,,,,,,,,,,,,,,,,,,,,,,,,,,,,,,,,,,,,,,,,,
,,,,,,,,,,,,,,,,,,,,,,,,,,,,,,,,,,,,,,,,,,,,,,,,,,,,,
,,,,,,,,,,,,,,,,,,,,,,,,,,,,,,,,,,,,,,,,,,,,,,,,,,,,,
,,,,,,,,,,,,,,,,,,,,,,,,,,,,,,,,,,,,,,,,,,,,,,,,,,,,,
,,,,,,,,,,,,,,,,,,,,,,,,,,,,,,,,,,,,,,,,,,,,,,,,,,,,,
,,,,,,,,,,,,,,,,,,,,,,,,,,,,,,,,,,,,,,,,,,,,,,,,,,,,,
,,,,,,,,,,,,,,,,,,,,,,,,,,,,,,,,,,,,,,,,,,,,,,,,,,,,,
,,,,,,,,,,,,,,,,,,,,,,,,,,,,,,,,,,,,,,,,,,,,,,,,,,,,,
,,,,,,,,,,,,,,,,,,,,,,,,,,,,,,,,,,,,,,,,,,,,,,,,,,,,,
,,,,,,,,,,,,,,,,,,,,,,,,,,,,,,,,,,,,,,,,,,,,,,,,,,,,,
,,,,,,,,,,,,,,,,,,,,,,,,,,,,,,,,,,,,,,,,,,,,,,,,,,,,,
,,,,,,,,,,,,,,,,,,,,,,,,,,,,,,,,,,,,,,,,,,,,,,,,,,,,,
,,,,,,,,,,,,,,,,,,,,,,,,,,,,,,,,,,,,,,,,,,,,,,,,,,,,,
,,,,,,,,,,,,,,,,,,,,,,,,,,,,,,,,,,,,,,,,,,,,,,,,,,,,,
,,,,,,,,,,,,,,,,,,,,,,,,,,,,,,,,,,,,,,,,,,,,,,,,,,,,,
,,,,,,,,,,,,,,,,,,,,,,,,,,,,,,,,,,,,,,,,,,,,,,,,,,,,,
,,,,,,,,,,,,,,,,,,,,,,,,,,,,,,,,,,,,,,,,,,,,,,,,,,,,,
,,,,,,,,,,,,,,,,,,,,,,,,,,,,,,,,,,,,,,,,,,,,,,,,,,,,,
,,,,,,,,,,,,,,,,,,,,,,,,,,,,,,,,,,,,,,,,,,,,,,,,,,,,,
,,,,,,,,,,,,,,,,,,,,,,,,,,,,,,,,,,,,,,,,,,,,,,,,,,,,,
,,,,,,,,,,,,,,,,,,,,,,,,,,,,,,,,,,,,,,,,,,,,,,,,,,,,,
,,,,,,,,,,,,,,,,,,,,,,,,,,,,,,,,,,,,,,,,,,,,,,,,,,,,,
,,,,,,,,,,,,,,,,,,,,,,,,,,,,,,,,,,,,,,,,,,,,,,,,,,,,,
,,,,,,,,,,,,,,,,,,,,,,,,,,,,,,,,,,,,,,,,,,,,,,,,,,,,,
,,,,,,,,,,,,,,,,,,,,,,,,,,,,,,,,,,,,,,,,,,,,,,,,,,,,,
,,,,,,,,,,,,,,,,,,,,,,,,,,,,,,,,,,,,,,,,,,,,,,,,,,,,,
,,,,,,,,,,,,,,,,,,,,,,,,,,,,,,,,,,,,,,,,,,,,,,,,,,,,,
,,,,,,,,,,,,,,,,,,,,,,,,,,,,,,,,,,,,,,,,,,,,,,,,,,,,,
,,,,,,,,,,,,,,,,,,,,,,,,,,,,,,,,,,,,,,,,,,,,,,,,,,,,,
,,,,,,,,,,,,,,,,,,,,,,,,,,,,,,,,,,,,,,,,,,,,,,,,,,,,,
,,,,,,,,,,,,,,,,,,,,,,,,,,,,,,,,,,,,,,,,,,,,,,,,,,,,,
,,,,,,,,,,,,,,,,,,,,,,,,,,,,,,,,,,,,,,,,,,,,,,,,,,,,,
,,,,,,,,,,,,,,,,,,,,,,,,,,,,,,,,,,,,,,,,,,,,,,,,,,,,,
,,,,,,,,,,,,,,,,,,,,,,,,,,,,,,,,,,,,,,,,,,,,,,,,,,,,,
,,,,,,,,,,,,,,,,,,,,,,,,,,,,,,,,,,,,,,,,,,,,,,,,,,,,,
,,,,,,,,,,,,,,,,,,,,,,,,,,,,,,,,,,,,,,,,,,,,,,,,,,,,,
,,,,,,,,,,,,,,,,,,,,,,,,,,,,,,,,,,,,,,,,,,,,,,,,,,,,,
,,,,,,,,,,,,,,,,,,,,,,,,,,,,,,,,,,,,,,,,,,,,,,,,,,,,,
,,,,,,,,,,,,,,,,,,,,,,,,,,,,,,,,,,,,,,,,,,,,,,,,,,,,,
,,,,,,,,,,,,,,,,,,,,,,,,,,,,,,,,,,,,,,,,,,,,,,,,,,,,,
,,,,,,,,,,,,,,,,,,,,,,,,,,,,,,,,,,,,,,,,,,,,,,,,,,,,,
,,,,,,,,,,,,,,,,,,,,,,,,,,,,,,,,,,,,,,,,,,,,,,,,,,,,,
,,,,,,,,,,,,,,,,,,,,,,,,,,,,,,,,,,,,,,,,,,,,,,,,,,,,,
,,,,,,,,,,,,,,,,,,,,,,,,,,,,,,,,,,,,,,,,,,,,,,,,,,,,,
,,,,,,,,,,,,,,,,,,,,,,,,,,,,,,,,,,,,,,,,,,,,,,,,,,,,,
,,,,,,,,,,,,,,,,,,,,,,,,,,,,,,,,,,,,,,,,,,,,,,,,,,,,,
,,,,,,,,,,,,,,,,,,,,,,,,,,,,,,,,,,,,,,,,,,,,,,,,,,,,,
,,,,,,,,,,,,,,,,,,,,,,,,,,,,,,,,,,,,,,,,,,,,,,,,,,,,,
,,,,,,,,,,,,,,,,,,,,,,,,,,,,,,,,,,,,,,,,,,,,,,,,,,,,,
,,,,,,,,,,,,,,,,,,,,,,,,,,,,,,,,,,,,,,,,,,,,,,,,,,,,,
,,,,,,,,,,,,,,,,,,,,,,,,,,,,,,,,,,,,,,,,,,,,,,,,,,,,,
,,,,,,,,,,,,,,,,,,,,,,,,,,,,,,,,,,,,,,,,,,,,,,,,,,,,,
,,,,,,,,,,,,,,,,,,,,,,,,,,,,,,,,,,,,,,,,,,,,,,,,,,,,,
,,,,,,,,,,,,,,,,,,,,,,,,,,,,,,,,,,,,,,,,,,,,,,,,,,,,,
,,,,,,,,,,,,,,,,,,,,,,,,,,,,,,,,,,,,,,,,,,,,,,,,,,,,,
,,,,,,,,,,,,,,,,,,,,,,,,,,,,,,,,,,,,,,,,,,,,,,,,,,,,,
,,,,,,,,,,,,,,,,,,,,,,,,,,,,,,,,,,,,,,,,,,,,,,,,,,,,,
,,,,,,,,,,,,,,,,,,,,,,,,,,,,,,,,,,,,,,,,,,,,,,,,,,,,,
,,,,,,,,,,,,,,,,,,,,,,,,,,,,,,,,,,,,,,,,,,,,,,,,,,,,,
,,,,,,,,,,,,,,,,,,,,,,,,,,,,,,,,,,,,,,,,,,,,,,,,,,,,,
,,,,,,,,,,,,,,,,,,,,,,,,,,,,,,,,,,,,,,,,,,,,,,,,,,,,,
,,,,,,,,,,,,,,,,,,,,,,,,,,,,,,,,,,,,,,,,,,,,,,,,,,,,,
,,,,,,,,,,,,,,,,,,,,,,,,,,,,,,,,,,,,,,,,,,,,,,,,,,,,,
,,,,,,,,,,,,,,,,,,,,,,,,,,,,,,,,,,,,,,,,,,,,,,,,,,,,,
,,,,,,,,,,,,,,,,,,,,,,,,,,,,,,,,,,,,,,,,,,,,,,,,,,,,,
,,,,,,,,,,,,,,,,,,,,,,,,,,,,,,,,,,,,,,,,,,,,,,,,,,,,,
,,,,,,,,,,,,,,,,,,,,,,,,,,,,,,,,,,,,,,,,,,,,,,,,,,,,,
,,,,,,,,,,,,,,,,,,,,,,,,,,,,,,,,,,,,,,,,,,,,,,,,,,,,,
,,,,,,,,,,,,,,,,,,,,,,,,,,,,,,,,,,,,,,,,,,,,,,,,,,,,,
,,,,,,,,,,,,,,,,,,,,,,,,,,,,,,,,,,,,,,,,,,,,,,,,,,,,,
,,,,,,,,,,,,,,,,,,,,,,,,,,,,,,,,,,,,,,,,,,,,,,,,,,,,,
,,,,,,,,,,,,,,,,,,,,,,,,,,,,,,,,,,,,,,,,,,,,,,,,,,,,,
,,,,,,,,,,,,,,,,,,,,,,,,,,,,,,,,,,,,,,,,,,,,,,,,,,,,,
,,,,,,,,,,,,,,,,,,,,,,,,,,,,,,,,,,,,,,,,,,,,,,,,,,,,,
,,,,,,,,,,,,,,,,,,,,,,,,,,,,,,,,,,,,,,,,,,,,,,,,,,,,,
,,,,,,,,,,,,,,,,,,,,,,,,,,,,,,,,,,,,,,,,,,,,,,,,,,,,,
,,,,,,,,,,,,,,,,,,,,,,,,,,,,,,,,,,,,,,,,,,,,,,,,,,,,,
,,,,,,,,,,,,,,,,,,,,,,,,,,,,,,,,,,,,,,,,,,,,,,,,,,,,,
,,,,,,,,,,,,,,,,,,,,,,,,,,,,,,,,,,,,,,,,,,,,,,,,,,,,,
,,,,,,,,,,,,,,,,,,,,,,,,,,,,,,,,,,,,,,,,,,,,,,,,,,,,,
,,,,,,,,,,,,,,,,,,,,,,,,,,,,,,,,,,,,,,,,,,,,,,,,,,,,,
,,,,,,,,,,,,,,,,,,,,,,,,,,,,,,,,,,,,,,,,,,,,,,,,,,,,,
,,,,,,,,,,,,,,,,,,,,,,,,,,,,,,,,,,,,,,,,,,,,,,,,,,,,,
,,,,,,,,,,,,,,,,,,,,,,,,,,,,,,,,,,,,,,,,,,,,,,,,,,,,,
,,,,,,,,,,,,,,,,,,,,,,,,,,,,,,,,,,,,,,,,,,,,,,,,,,,,,
,,,,,,,,,,,,,,,,,,,,,,,,,,,,,,,,,,,,,,,,,,,,,,,,,,,,,
,,,,,,,,,,,,,,,,,,,,,,,,,,,,,,,,,,,,,,,,,,,,,,,,,,,,,
,,,,,,,,,,,,,,,,,,,,,,,,,,,,,,,,,,,,,,,,,,,,,,,,,,,,,
,,,,,,,,,,,,,,,,,,,,,,,,,,,,,,,,,,,,,,,,,,,,,,,,,,,,,
,,,,,,,,,,,,,,,,,,,,,,,,,,,,,,,,,,,,,,,,,,,,,,,,,,,,,
,,,,,,,,,,,,,,,,,,,,,,,,,,,,,,,,,,,,,,,,,,,,,,,,,,,,,
,,,,,,,,,,,,,,,,,,,,,,,,,,,,,,,,,,,,,,,,,,,,,,,,,,,,,
,,,,,,,,,,,,,,,,,,,,,,,,,,,,,,,,,,,,,,,,,,,,,,,,,,,,,
,,,,,,,,,,,,,,,,,,,,,,,,,,,,,,,,,,,,,,,,,,,,,,,,,,,,,
,,,,,,,,,,,,,,,,,,,,,,,,,,,,,,,,,,,,,,,,,,,,,,,,,,,,,
,,,,,,,,,,,,,,,,,,,,,,,,,,,,,,,,,,,,,,,,,,,,,,,,,,,,,
,,,,,,,,,,,,,,,,,,,,,,,,,,,,,,,,,,,,,,,,,,,,,,,,,,,,,
,,,,,,,,,,,,,,,,,,,,,,,,,,,,,,,,,,,,,,,,,,,,,,,,,,,,,
,,,,,,,,,,,,,,,,,,,,,,,,,,,,,,,,,,,,,,,,,,,,,,,,,,,,,
,,,,,,,,,,,,,,,,,,,,,,,,,,,,,,,,,,,,,,,,,,,,,,,,,,,,,
,,,,,,,,,,,,,,,,,,,,,,,,,,,,,,,,,,,,,,,,,,,,,,,,,,,,,
,,,,,,,,,,,,,,,,,,,,,,,,,,,,,,,,,,,,,,,,,,,,,,,,,,,,,
,,,,,,,,,,,,,,,,,,,,,,,,,,,,,,,,,,,,,,,,,,,,,,,,,,,,,
,,,,,,,,,,,,,,,,,,,,,,,,,,,,,,,,,,,,,,,,,,,,,,,,,,,,,
,,,,,,,,,,,,,,,,,,,,,,,,,,,,,,,,,,,,,,,,,,,,,,,,,,,,,
,,,,,,,,,,,,,,,,,,,,,,,,,,,,,,,,,,,,,,,,,,,,,,,,,,,,,
,,,,,,,,,,,,,,,,,,,,,,,,,,,,,,,,,,,,,,,,,,,,,,,,,,,,,
,,,,,,,,,,,,,,,,,,,,,,,,,,,,,,,,,,,,,,,,,,,,,,,,,,,,,
,,,,,,,,,,,,,,,,,,,,,,,,,,,,,,,,,,,,,,,,,,,,,,,,,,,,,
,,,,,,,,,,,,,,,,,,,,,,,,,,,,,,,,,,,,,,,,,,,,,,,,,,,,,
,,,,,,,,,,,,,,,,,,,,,,,,,,,,,,,,,,,,,,,,,,,,,,,,,,,,,
,,,,,,,,,,,,,,,,,,,,,,,,,,,,,,,,,,,,,,,,,,,,,,,,,,,,,
,,,,,,,,,,,,,,,,,,,,,,,,,,,,,,,,,,,,,,,,,,,,,,,,,,,,,
,,,,,,,,,,,,,,,,,,,,,,,,,,,,,,,,,,,,,,,,,,,,,,,,,,,,,
,,,,,,,,,,,,,,,,,,,,,,,,,,,,,,,,,,,,,,,,,,,,,,,,,,,,,
,,,,,,,,,,,,,,,,,,,,,,,,,,,,,,,,,,,,,,,,,,,,,,,,,,,,,
,,,,,,,,,,,,,,,,,,,,,,,,,,,,,,,,,,,,,,,,,,,,,,,,,,,,,
,,,,,,,,,,,,,,,,,,,,,,,,,,,,,,,,,,,,,,,,,,,,,,,,,,,,,
,,,,,,,,,,,,,,,,,,,,,,,,,,,,,,,,,,,,,,,,,,,,,,,,,,,,,
,,,,,,,,,,,,,,,,,,,,,,,,,,,,,,,,,,,,,,,,,,,,,,,,,,,,,
,,,,,,,,,,,,,,,,,,,,,,,,,,,,,,,,,,,,,,,,,,,,,,,,,,,,,
,,,,,,,,,,,,,,,,,,,,,,,,,,,,,,,,,,,,,,,,,,,,,,,,,,,,,
,,,,,,,,,,,,,,,,,,,,,,,,,,,,,,,,,,,,,,,,,,,,,,,,,,,,,
,,,,,,,,,,,,,,,,,,,,,,,,,,,,,,,,,,,,,,,,,,,,,,,,,,,,,
,,,,,,,,,,,,,,,,,,,,,,,,,,,,,,,,,,,,,,,,,,,,,,,,,,,,,
,,,,,,,,,,,,,,,,,,,,,,,,,,,,,,,,,,,,,,,,,,,,,,,,,,,,,
,,,,,,,,,,,,,,,,,,,,,,,,,,,,,,,,,,,,,,,,,,,,,,,,,,,,,
,,,,,,,,,,,,,,,,,,,,,,,,,,,,,,,,,,,,,,,,,,,,,,,,,,,,,
,,,,,,,,,,,,,,,,,,,,,,,,,,,,,,,,,,,,,,,,,,,,,,,,,,,,,
,,,,,,,,,,,,,,,,,,,,,,,,,,,,,,,,,,,,,,,,,,,,,,,,,,,,,
,,,,,,,,,,,,,,,,,,,,,,,,,,,,,,,,,,,,,,,,,,,,,,,,,,,,,
,,,,,,,,,,,,,,,,,,,,,,,,,,,,,,,,,,,,,,,,,,,,,,,,,,,,,
,,,,,,,,,,,,,,,,,,,,,,,,,,,,,,,,,,,,,,,,,,,,,,,,,,,,,
,,,,,,,,,,,,,,,,,,,,,,,,,,,,,,,,,,,,,,,,,,,,,,,,,,,,,
,,,,,,,,,,,,,,,,,,,,,,,,,,,,,,,,,,,,,,,,,,,,,,,,,,,,,
,,,,,,,,,,,,,,,,,,,,,,,,,,,,,,,,,,,,,,,,,,,,,,,,,,,,,
,,,,,,,,,,,,,,,,,,,,,,,,,,,,,,,,,,,,,,,,,,,,,,,,,,,,,
,,,,,,,,,,,,,,,,,,,,,,,,,,,,,,,,,,,,,,,,,,,,,,,,,,,,,
,,,,,,,,,,,,,,,,,,,,,,,,,,,,,,,,,,,,,,,,,,,,,,,,,,,,,
,,,,,,,,,,,,,,,,,,,,,,,,,,,,,,,,,,,,,,,,,,,,,,,,,,,,,
,,,,,,,,,,,,,,,,,,,,,,,,,,,,,,,,,,,,,,,,,,,,,,,,,,,,,
,,,,,,,,,,,,,,,,,,,,,,,,,,,,,,,,,,,,,,,,,,,,,,,,,,,,,
,,,,,,,,,,,,,,,,,,,,,,,,,,,,,,,,,,,,,,,,,,,,,,,,,,,,,
,,,,,,,,,,,,,,,,,,,,,,,,,,,,,,,,,,,,,,,,,,,,,,,,,,,,,
,,,,,,,,,,,,,,,,,,,,,,,,,,,,,,,,,,,,,,,,,,,,,,,,,,,,,
,,,,,,,,,,,,,,,,,,,,,,,,,,,,,,,,,,,,,,,,,,,,,,,,,,,,,
,,,,,,,,,,,,,,,,,,,,,,,,,,,,,,,,,,,,,,,,,,,,,,,,,,,,,
,,,,,,,,,,,,,,,,,,,,,,,,,,,,,,,,,,,,,,,,,,,,,,,,,,,,,
,,,,,,,,,,,,,,,,,,,,,,,,,,,,,,,,,,,,,,,,,,,,,,,,,,,,,
,,,,,,,,,,,,,,,,,,,,,,,,,,,,,,,,,,,,,,,,,,,,,,,,,,,,,
,,,,,,,,,,,,,,,,,,,,,,,,,,,,,,,,,,,,,,,,,,,,,,,,,,,,,
,,,,,,,,,,,,,,,,,,,,,,,,,,,,,,,,,,,,,,,,,,,,,,,,,,,,,
,,,,,,,,,,,,,,,,,,,,,,,,,,,,,,,,,,,,,,,,,,,,,,,,,,,,,
,,,,,,,,,,,,,,,,,,,,,,,,,,,,,,,,,,,,,,,,,,,,,,,,,,,,,
,,,,,,,,,,,,,,,,,,,,,,,,,,,,,,,,,,,,,,,,,,,,,,,,,,,,,
,,,,,,,,,,,,,,,,,,,,,,,,,,,,,,,,,,,,,,,,,,,,,,,,,,,,,
,,,,,,,,,,,,,,,,,,,,,,,,,,,,,,,,,,,,,,,,,,,,,,,,,,,,,
,,,,,,,,,,,,,,,,,,,,,,,,,,,,,,,,,,,,,,,,,,,,,,,,,,,,,
,,,,,,,,,,,,,,,,,,,,,,,,,,,,,,,,,,,,,,,,,,,,,,,,,,,,,
,,,,,,,,,,,,,,,,,,,,,,,,,,,,,,,,,,,,,,,,,,,,,,,,,,,,,
,,,,,,,,,,,,,,,,,,,,,,,,,,,,,,,,,,,,,,,,,,,,,,,,,,,,,
,,,,,,,,,,,,,,,,,,,,,,,,,,,,,,,,,,,,,,,,,,,,,,,,,,,,,
,,,,,,,,,,,,,,,,,,,,,,,,,,,,,,,,,,,,,,,,,,,,,,,,,,,,,
,,,,,,,,,,,,,,,,,,,,,,,,,,,,,,,,,,,,,,,,,,,,,,,,,,,,,
,,,,,,,,,,,,,,,,,,,,,,,,,,,,,,,,,,,,,,,,,,,,,,,,,,,,,
,,,,,,,,,,,,,,,,,,,,,,,,,,,,,,,,,,,,,,,,,,,,,,,,,,,,,
,,,,,,,,,,,,,,,,,,,,,,,,,,,,,,,,,,,,,,,,,,,,,,,,,,,,,
,,,,,,,,,,,,,,,,,,,,,,,,,,,,,,,,,,,,,,,,,,,,,,,,,,,,,
,,,,,,,,,,,,,,,,,,,,,,,,,,,,,,,,,,,,,,,,,,,,,,,,,,,,,
,,,,,,,,,,,,,,,,,,,,,,,,,,,,,,,,,,,,,,,,,,,,,,,,,,,,,
,,,,,,,,,,,,,,,,,,,,,,,,,,,,,,,,,,,,,,,,,,,,,,,,,,,,,
,,,,,,,,,,,,,,,,,,,,,,,,,,,,,,,,,,,,,,,,,,,,,,,,,,,,,
,,,,,,,,,,,,,,,,,,,,,,,,,,,,,,,,,,,,,,,,,,,,,,,,,,,,,
,,,,,,,,,,,,,,,,,,,,,,,,,,,,,,,,,,,,,,,,,,,,,,,,,,,,,
,,,,,,,,,,,,,,,,,,,,,,,,,,,,,,,,,,,,,,,,,,,,,,,,,,,,,
,,,,,,,,,,,,,,,,,,,,,,,,,,,,,,,,,,,,,,,,,,,,,,,,,,,,,
,,,,,,,,,,,,,,,,,,,,,,,,,,,,,,,,,,,,,,,,,,,,,,,,,,,,,
,,,,,,,,,,,,,,,,,,,,,,,,,,,,,,,,,,,,,,,,,,,,,,,,,,,,,
,,,,,,,,,,,,,,,,,,,,,,,,,,,,,,,,,,,,,,,,,,,,,,,,,,,,,
,,,,,,,,,,,,,,,,,,,,,,,,,,,,,,,,,,,,,,,,,,,,,,,,,,,,,
,,,,,,,,,,,,,,,,,,,,,,,,,,,,,,,,,,,,,,,,,,,,,,,,,,,,,
,,,,,,,,,,,,,,,,,,,,,,,,,,,,,,,,,,,,,,,,,,,,,,,,,,,,,
,,,,,,,,,,,,,,,,,,,,,,,,,,,,,,,,,,,,,,,,,,,,,,,,,,,,,
,,,,,,,,,,,,,,,,,,,,,,,,,,,,,,,,,,,,,,,,,,,,,,,,,,,,,
,,,,,,,,,,,,,,,,,,,,,,,,,,,,,,,,,,,,,,,,,,,,,,,,,,,,,
,,,,,,,,,,,,,,,,,,,,,,,,,,,,,,,,,,,,,,,,,,,,,,,,,,,,,
,,,,,,,,,,,,,,,,,,,,,,,,,,,,,,,,,,,,,,,,,,,,,,,,,,,,,
,,,,,,,,,,,,,,,,,,,,,,,,,,,,,,,,,,,,,,,,,,,,,,,,,,,,,
,,,,,,,,,,,,,,,,,,,,,,,,,,,,,,,,,,,,,,,,,,,,,,,,,,,,,
,,,,,,,,,,,,,,,,,,,,,,,,,,,,,,,,,,,,,,,,,,,,,,,,,,,,,
,,,,,,,,,,,,,,,,,,,,,,,,,,,,,,,,,,,,,,,,,,,,,,,,,,,,,
,,,,,,,,,,,,,,,,,,,,,,,,,,,,,,,,,,,,,,,,,,,,,,,,,,,,,
,,,,,,,,,,,,,,,,,,,,,,,,,,,,,,,,,,,,,,,,,,,,,,,,,,,,,
,,,,,,,,,,,,,,,,,,,,,,,,,,,,,,,,,,,,,,,,,,,,,,,,,,,,,
,,,,,,,,,,,,,,,,,,,,,,,,,,,,,,,,,,,,,,,,,,,,,,,,,,,,,
,,,,,,,,,,,,,,,,,,,,,,,,,,,,,,,,,,,,,,,,,,,,,,,,,,,,,
,,,,,,,,,,,,,,,,,,,,,,,,,,,,,,,,,,,,,,,,,,,,,,,,,,,,,
,,,,,,,,,,,,,,,,,,,,,,,,,,,,,,,,,,,,,,,,,,,,,,,,,,,,,
,,,,,,,,,,,,,,,,,,,,,,,,,,,,,,,,,,,,,,,,,,,,,,,,,,,,,
,,,,,,,,,,,,,,,,,,,,,,,,,,,,,,,,,,,,,,,,,,,,,,,,,,,,,
,,,,,,,,,,,,,,,,,,,,,,,,,,,,,,,,,,,,,,,,,,,,,,,,,,,,,
,,,,,,,,,,,,,,,,,,,,,,,,,,,,,,,,,,,,,,,,,,,,,,,,,,,,,
,,,,,,,,,,,,,,,,,,,,,,,,,,,,,,,,,,,,,,,,,,,,,,,,,,,,,
,,,,,,,,,,,,,,,,,,,,,,,,,,,,,,,,,,,,,,,,,,,,,,,,,,,,,
,,,,,,,,,,,,,,,,,,,,,,,,,,,,,,,,,,,,,,,,,,,,,,,,,,,,,
,,,,,,,,,,,,,,,,,,,,,,,,,,,,,,,,,,,,,,,,,,,,,,,,,,,,,
,,,,,,,,,,,,,,,,,,,,,,,,,,,,,,,,,,,,,,,,,,,,,,,,,,,,,
,,,,,,,,,,,,,,,,,,,,,,,,,,,,,,,,,,,,,,,,,,,,,,,,,,,,,
,,,,,,,,,,,,,,,,,,,,,,,,,,,,,,,,,,,,,,,,,,,,,,,,,,,,,
,,,,,,,,,,,,,,,,,,,,,,,,,,,,,,,,,,,,,,,,,,,,,,,,,,,,,
,,,,,,,,,,,,,,,,,,,,,,,,,,,,,,,,,,,,,,,,,,,,,,,,,,,,,
,,,,,,,,,,,,,,,,,,,,,,,,,,,,,,,,,,,,,,,,,,,,,,,,,,,,,
,,,,,,,,,,,,,,,,,,,,,,,,,,,,,,,,,,,,,,,,,,,,,,,,,,,,,
,,,,,,,,,,,,,,,,,,,,,,,,,,,,,,,,,,,,,,,,,,,,,,,,,,,,,
,,,,,,,,,,,,,,,,,,,,,,,,,,,,,,,,,,,,,,,,,,,,,,,,,,,,,
,,,,,,,,,,,,,,,,,,,,,,,,,,,,,,,,,,,,,,,,,,,,,,,,,,,,,
,,,,,,,,,,,,,,,,,,,,,,,,,,,,,,,,,,,,,,,,,,,,,,,,,,,,,
,,,,,,,,,,,,,,,,,,,,,,,,,,,,,,,,,,,,,,,,,,,,,,,,,,,,,
,,,,,,,,,,,,,,,,,,,,,,,,,,,,,,,,,,,,,,,,,,,,,,,,,,,,,
,,,,,,,,,,,,,,,,,,,,,,,,,,,,,,,,,,,,,,,,,,,,,,,,,,,,,
,,,,,,,,,,,,,,,,,,,,,,,,,,,,,,,,,,,,,,,,,,,,,,,,,,,,,
,,,,,,,,,,,,,,,,,,,,,,,,,,,,,,,,,,,,,,,,,,,,,,,,,,,,,
,,,,,,,,,,,,,,,,,,,,,,,,,,,,,,,,,,,,,,,,,,,,,,,,,,,,,
,,,,,,,,,,,,,,,,,,,,,,,,,,,,,,,,,,,,,,,,,,,,,,,,,,,,,
,,,,,,,,,,,,,,,,,,,,,,,,,,,,,,,,,,,,,,,,,,,,,,,,,,,,,
,,,,,,,,,,,,,,,,,,,,,,,,,,,,,,,,,,,,,,,,,,,,,,,,,,,,,
,,,,,,,,,,,,,,,,,,,,,,,,,,,,,,,,,,,,,,,,,,,,,,,,,,,,,
,,,,,,,,,,,,,,,,,,,,,,,,,,,,,,,,,,,,,,,,,,,,,,,,,,,,,
,,,,,,,,,,,,,,,,,,,,,,,,,,,,,,,,,,,,,,,,,,,,,,,,,,,,,
,,,,,,,,,,,,,,,,,,,,,,,,,,,,,,,,,,,,,,,,,,,,,,,,,,,,,
,,,,,,,,,,,,,,,,,,,,,,,,,,,,,,,,,,,,,,,,,,,,,,,,,,,,,
,,,,,,,,,,,,,,,,,,,,,,,,,,,,,,,,,,,,,,,,,,,,,,,,,,,,,
,,,,,,,,,,,,,,,,,,,,,,,,,,,,,,,,,,,,,,,,,,,,,,,,,,,,,
,,,,,,,,,,,,,,,,,,,,,,,,,,,,,,,,,,,,,,,,,,,,,,,,,,,,,
,,,,,,,,,,,,,,,,,,,,,,,,,,,,,,,,,,,,,,,,,,,,,,,,,,,,,
,,,,,,,,,,,,,,,,,,,,,,,,,,,,,,,,,,,,,,,,,,,,,,,,,,,,,
,,,,,,,,,,,,,,,,,,,,,,,,,,,,,,,,,,,,,,,,,,,,,,,,,,,,,
,,,,,,,,,,,,,,,,,,,,,,,,,,,,,,,,,,,,,,,,,,,,,,,,,,,,,
,,,,,,,,,,,,,,,,,,,,,,,,,,,,,,,,,,,,,,,,,,,,,,,,,,,,,
,,,,,,,,,,,,,,,,,,,,,,,,,,,,,,,,,,,,,,,,,,,,,,,,,,,,,
,,,,,,,,,,,,,,,,,,,,,,,,,,,,,,,,,,,,,,,,,,,,,,,,,,,,,
,,,,,,,,,,,,,,,,,,,,,,,,,,,,,,,,,,,,,,,,,,,,,,,,,,,,,
,,,,,,,,,,,,,,,,,,,,,,,,,,,,,,,,,,,,,,,,,,,,,,,,,,,,,
,,,,,,,,,,,,,,,,,,,,,,,,,,,,,,,,,,,,,,,,,,,,,,,,,,,,,
,,,,,,,,,,,,,,,,,,,,,,,,,,,,,,,,,,,,,,,,,,,,,,,,,,,,,
,,,,,,,,,,,,,,,,,,,,,,,,,,,,,,,,,,,,,,,,,,,,,,,,,,,,,
,,,,,,,,,,,,,,,,,,,,,,,,,,,,,,,,,,,,,,,,,,,,,,,,,,,,,
,,,,,,,,,,,,,,,,,,,,,,,,,,,,,,,,,,,,,,,,,,,,,,,,,,,,,
,,,,,,,,,,,,,,,,,,,,,,,,,,,,,,,,,,,,,,,,,,,,,,,,,,,,,
,,,,,,,,,,,,,,,,,,,,,,,,,,,,,,,,,,,,,,,,,,,,,,,,,,,,,
,,,,,,,,,,,,,,,,,,,,,,,,,,,,,,,,,,,,,,,,,,,,,,,,,,,,,
,,,,,,,,,,,,,,,,,,,,,,,,,,,,,,,,,,,,,,,,,,,,,,,,,,,,,
,,,,,,,,,,,,,,,,,,,,,,,,,,,,,,,,,,,,,,,,,,,,,,,,,,,,,
,,,,,,,,,,,,,,,,,,,,,,,,,,,,,,,,,,,,,,,,,,,,,,,,,,,,,
,,,,,,,,,,,,,,,,,,,,,,,,,,,,,,,,,,,,,,,,,,,,,,,,,,,,,
,,,,,,,,,,,,,,,,,,,,,,,,,,,,,,,,,,,,,,,,,,,,,,,,,,,,,
,,,,,,,,,,,,,,,,,,,,,,,,,,,,,,,,,,,,,,,,,,,,,,,,,,,,,
,,,,,,,,,,,,,,,,,,,,,,,,,,,,,,,,,,,,,,,,,,,,,,,,,,,,,
,,,,,,,,,,,,,,,,,,,,,,,,,,,,,,,,,,,,,,,,,,,,,,,,,,,,,
,,,,,,,,,,,,,,,,,,,,,,,,,,,,,,,,,,,,,,,,,,,,,,,,,,,,,
,,,,,,,,,,,,,,,,,,,,,,,,,,,,,,,,,,,,,,,,,,,,,,,,,,,,,
,,,,,,,,,,,,,,,,,,,,,,,,,,,,,,,,,,,,,,,,,,,,,,,,,,,,,
,,,,,,,,,,,,,,,,,,,,,,,,,,,,,,,,,,,,,,,,,,,,,,,,,,,,,
,,,,,,,,,,,,,,,,,,,,,,,,,,,,,,,,,,,,,,,,,,,,,,,,,,,,,
,,,,,,,,,,,,,,,,,,,,,,,,,,,,,,,,,,,,,,,,,,,,,,,,,,,,,
,,,,,,,,,,,,,,,,,,,,,,,,,,,,,,,,,,,,,,,,,,,,,,,,,,,,,
,,,,,,,,,,,,,,,,,,,,,,,,,,,,,,,,,,,,,,,,,,,,,,,,,,,,,
,,,,,,,,,,,,,,,,,,,,,,,,,,,,,,,,,,,,,,,,,,,,,,,,,,,,,
,,,,,,,,,,,,,,,,,,,,,,,,,,,,,,,,,,,,,,,,,,,,,,,,,,,,,
,,,,,,,,,,,,,,,,,,,,,,,,,,,,,,,,,,,,,,,,,,,,,,,,,,,,,
,,,,,,,,,,,,,,,,,,,,,,,,,,,,,,,,,,,,,,,,,,,,,,,,,,,,,
,,,,,,,,,,,,,,,,,,,,,,,,,,,,,,,,,,,,,,,,,,,,,,,,,,,,,
,,,,,,,,,,,,,,,,,,,,,,,,,,,,,,,,,,,,,,,,,,,,,,,,,,,,,
,,,,,,,,,,,,,,,,,,,,,,,,,,,,,,,,,,,,,,,,,,,,,,,,,,,,,
,,,,,,,,,,,,,,,,,,,,,,,,,,,,,,,,,,,,,,,,,,,,,,,,,,,,,
,,,,,,,,,,,,,,,,,,,,,,,,,,,,,,,,,,,,,,,,,,,,,,,,,,,,,
,,,,,,,,,,,,,,,,,,,,,,,,,,,,,,,,,,,,,,,,,,,,,,,,,,,,,
,,,,,,,,,,,,,,,,,,,,,,,,,,,,,,,,,,,,,,,,,,,,,,,,,,,,,
,,,,,,,,,,,,,,,,,,,,,,,,,,,,,,,,,,,,,,,,,,,,,,,,,,,,,
,,,,,,,,,,,,,,,,,,,,,,,,,,,,,,,,,,,,,,,,,,,,,,,,,,,,,
,,,,,,,,,,,,,,,,,,,,,,,,,,,,,,,,,,,,,,,,,,,,,,,,,,,,,
,,,,,,,,,,,,,,,,,,,,,,,,,,,,,,,,,,,,,,,,,,,,,,,,,,,,,
,,,,,,,,,,,,,,,,,,,,,,,,,,,,,,,,,,,,,,,,,,,,,,,,,,,,,
,,,,,,,,,,,,,,,,,,,,,,,,,,,,,,,,,,,,,,,,,,,,,,,,,,,,,
,,,,,,,,,,,,,,,,,,,,,,,,,,,,,,,,,,,,,,,,,,,,,,,,,,,,,
,,,,,,,,,,,,,,,,,,,,,,,,,,,,,,,,,,,,,,,,,,,,,,,,,,,,,
,,,,,,,,,,,,,,,,,,,,,,,,,,,,,,,,,,,,,,,,,,,,,,,,,,,,,
,,,,,,,,,,,,,,,,,,,,,,,,,,,,,,,,,,,,,,,,,,,,,,,,,,,,,
,,,,,,,,,,,,,,,,,,,,,,,,,,,,,,,,,,,,,,,,,,,,,,,,,,,,,
,,,,,,,,,,,,,,,,,,,,,,,,,,,,,,,,,,,,,,,,,,,,,,,,,,,,,
,,,,,,,,,,,,,,,,,,,,,,,,,,,,,,,,,,,,,,,,,,,,,,,,,,,,,
,,,,,,,,,,,,,,,,,,,,,,,,,,,,,,,,,,,,,,,,,,,,,,,,,,,,,
,,,,,,,,,,,,,,,,,,,,,,,,,,,,,,,,,,,,,,,,,,,,,,,,,,,,,
,,,,,,,,,,,,,,,,,,,,,,,,,,,,,,,,,,,,,,,,,,,,,,,,,,,,,
,,,,,,,,,,,,,,,,,,,,,,,,,,,,,,,,,,,,,,,,,,,,,,,,,,,,,
,,,,,,,,,,,,,,,,,,,,,,,,,,,,,,,,,,,,,,,,,,,,,,,,,,,,,
,,,,,,,,,,,,,,,,,,,,,,,,,,,,,,,,,,,,,,,,,,,,,,,,,,,,,
,,,,,,,,,,,,,,,,,,,,,,,,,,,,,,,,,,,,,,,,,,,,,,,,,,,,,
,,,,,,,,,,,,,,,,,,,,,,,,,,,,,,,,,,,,,,,,,,,,,,,,,,,,,
,,,,,,,,,,,,,,,,,,,,,,,,,,,,,,,,,,,,,,,,,,,,,,,,,,,,,
,,,,,,,,,,,,,,,,,,,,,,,,,,,,,,,,,,,,,,,,,,,,,,,,,,,,,
,,,,,,,,,,,,,,,,,,,,,,,,,,,,,,,,,,,,,,,,,,,,,,,,,,,,,
,,,,,,,,,,,,,,,,,,,,,,,,,,,,,,,,,,,,,,,,,,,,,,,,,,,,,
,,,,,,,,,,,,,,,,,,,,,,,,,,,,,,,,,,,,,,,,,,,,,,,,,,,,,
,,,,,,,,,,,,,,,,,,,,,,,,,,,,,,,,,,,,,,,,,,,,,,,,,,,,,
,,,,,,,,,,,,,,,,,,,,,,,,,,,,,,,,,,,,,,,,,,,,,,,,,,,,,
,,,,,,,,,,,,,,,,,,,,,,,,,,,,,,,,,,,,,,,,,,,,,,,,,,,,,
,,,,,,,,,,,,,,,,,,,,,,,,,,,,,,,,,,,,,,,,,,,,,,,,,,,,,
,,,,,,,,,,,,,,,,,,,,,,,,,,,,,,,,,,,,,,,,,,,,,,,,,,,,,
,,,,,,,,,,,,,,,,,,,,,,,,,,,,,,,,,,,,,,,,,,,,,,,,,,,,,
,,,,,,,,,,,,,,,,,,,,,,,,,,,,,,,,,,,,,,,,,,,,,,,,,,,,,
,,,,,,,,,,,,,,,,,,,,,,,,,,,,,,,,,,,,,,,,,,,,,,,,,,,,,
,,,,,,,,,,,,,,,,,,,,,,,,,,,,,,,,,,,,,,,,,,,,,,,,,,,,,
,,,,,,,,,,,,,,,,,,,,,,,,,,,,,,,,,,,,,,,,,,,,,,,,,,,,,
,,,,,,,,,,,,,,,,,,,,,,,,,,,,,,,,,,,,,,,,,,,,,,,,,,,,,
,,,,,,,,,,,,,,,,,,,,,,,,,,,,,,,,,,,,,,,,,,,,,,,,,,,,,
,,,,,,,,,,,,,,,,,,,,,,,,,,,,,,,,,,,,,,,,,,,,,,,,,,,,,
,,,,,,,,,,,,,,,,,,,,,,,,,,,,,,,,,,,,,,,,,,,,,,,,,,,,,
,,,,,,,,,,,,,,,,,,,,,,,,,,,,,,,,,,,,,,,,,,,,,,,,,,,,,
,,,,,,,,,,,,,,,,,,,,,,,,,,,,,,,,,,,,,,,,,,,,,,,,,,,,,
,,,,,,,,,,,,,,,,,,,,,,,,,,,,,,,,,,,,,,,,,,,,,,,,,,,,,
,,,,,,,,,,,,,,,,,,,,,,,,,,,,,,,,,,,,,,,,,,,,,,,,,,,,,
,,,,,,,,,,,,,,,,,,,,,,,,,,,,,,,,,,,,,,,,,,,,,,,,,,,,,
,,,,,,,,,,,,,,,,,,,,,,,,,,,,,,,,,,,,,,,,,,,,,,,,,,,,,
,,,,,,,,,,,,,,,,,,,,,,,,,,,,,,,,,,,,,,,,,,,,,,,,,,,,,
,,,,,,,,,,,,,,,,,,,,,,,,,,,,,,,,,,,,,,,,,,,,,,,,,,,,,
,,,,,,,,,,,,,,,,,,,,,,,,,,,,,,,,,,,,,,,,,,,,,,,,,,,,,
,,,,,,,,,,,,,,,,,,,,,,,,,,,,,,,,,,,,,,,,,,,,,,,,,,,,,
,,,,,,,,,,,,,,,,,,,,,,,,,,,,,,,,,,,,,,,,,,,,,,,,,,,,,
,,,,,,,,,,,,,,,,,,,,,,,,,,,,,,,,,,,,,,,,,,,,,,,,,,,,,
,,,,,,,,,,,,,,,,,,,,,,,,,,,,,,,,,,,,,,,,,,,,,,,,,,,,,
,,,,,,,,,,,,,,,,,,,,,,,,,,,,,,,,,,,,,,,,,,,,,,,,,,,,,
,,,,,,,,,,,,,,,,,,,,,,,,,,,,,,,,,,,,,,,,,,,,,,,,,,,,,
,,,,,,,,,,,,,,,,,,,,,,,,,,,,,,,,,,,,,,,,,,,,,,,,,,,,,
,,,,,,,,,,,,,,,,,,,,,,,,,,,,,,,,,,,,,,,,,,,,,,,,,,,,,
,,,,,,,,,,,,,,,,,,,,,,,,,,,,,,,,,,,,,,,,,,,,,,,,,,,,,
,,,,,,,,,,,,,,,,,,,,,,,,,,,,,,,,,,,,,,,,,,,,,,,,,,,,,
,,,,,,,,,,,,,,,,,,,,,,,,,,,,,,,,,,,,,,,,,,,,,,,,,,,,,
,,,,,,,,,,,,,,,,,,,,,,,,,,,,,,,,,,,,,,,,,,,,,,,,,,,,,
,,,,,,,,,,,,,,,,,,,,,,,,,,,,,,,,,,,,,,,,,,,,,,,,,,,,,
,,,,,,,,,,,,,,,,,,,,,,,,,,,,,,,,,,,,,,,,,,,,,,,,,,,,,
,,,,,,,,,,,,,,,,,,,,,,,,,,,,,,,,,,,,,,,,,,,,,,,,,,,,,
,,,,,,,,,,,,,,,,,,,,,,,,,,,,,,,,,,,,,,,,,,,,,,,,,,,,,
,,,,,,,,,,,,,,,,,,,,,,,,,,,,,,,,,,,,,,,,,,,,,,,,,,,,,
,,,,,,,,,,,,,,,,,,,,,,,,,,,,,,,,,,,,,,,,,,,,,,,,,,,,,
,,,,,,,,,,,,,,,,,,,,,,,,,,,,,,,,,,,,,,,,,,,,,,,,,,,,,
,,,,,,,,,,,,,,,,,,,,,,,,,,,,,,,,,,,,,,,,,,,,,,,,,,,,,
,,,,,,,,,,,,,,,,,,,,,,,,,,,,,,,,,,,,,,,,,,,,,,,,,,,,,
,,,,,,,,,,,,,,,,,,,,,,,,,,,,,,,,,,,,,,,,,,,,,,,,,,,,,
,,,,,,,,,,,,,,,,,,,,,,,,,,,,,,,,,,,,,,,,,,,,,,,,,,,,,
,,,,,,,,,,,,,,,,,,,,,,,,,,,,,,,,,,,,,,,,,,,,,,,,,,,,,
,,,,,,,,,,,,,,,,,,,,,,,,,,,,,,,,,,,,,,,,,,,,,,,,,,,,,
,,,,,,,,,,,,,,,,,,,,,,,,,,,,,,,,,,,,,,,,,,,,,,,,,,,,,
,,,,,,,,,,,,,,,,,,,,,,,,,,,,,,,,,,,,,,,,,,,,,,,,,,,,,
,,,,,,,,,,,,,,,,,,,,,,,,,,,,,,,,,,,,,,,,,,,,,,,,,,,,,
,,,,,,,,,,,,,,,,,,,,,,,,,,,,,,,,,,,,,,,,,,,,,,,,,,,,,
,,,,,,,,,,,,,,,,,,,,,,,,,,,,,,,,,,,,,,,,,,,,,,,,,,,,,
,,,,,,,,,,,,,,,,,,,,,,,,,,,,,,,,,,,,,,,,,,,,,,,,,,,,,
,,,,,,,,,,,,,,,,,,,,,,,,,,,,,,,,,,,,,,,,,,,,,,,,,,,,,
,,,,,,,,,,,,,,,,,,,,,,,,,,,,,,,,,,,,,,,,,,,,,,,,,,,,,
,,,,,,,,,,,,,,,,,,,,,,,,,,,,,,,,,,,,,,,,,,,,,,,,,,,,,
,,,,,,,,,,,,,,,,,,,,,,,,,,,,,,,,,,,,,,,,,,,,,,,,,,,,,
,,,,,,,,,,,,,,,,,,,,,,,,,,,,,,,,,,,,,,,,,,,,,,,,,,,,,
,,,,,,,,,,,,,,,,,,,,,,,,,,,,,,,,,,,,,,,,,,,,,,,,,,,,,
,,,,,,,,,,,,,,,,,,,,,,,,,,,,,,,,,,,,,,,,,,,,,,,,,,,,,
,,,,,,,,,,,,,,,,,,,,,,,,,,,,,,,,,,,,,,,,,,,,,,,,,,,,,
,,,,,,,,,,,,,,,,,,,,,,,,,,,,,,,,,,,,,,,,,,,,,,,,,,,,,
,,,,,,,,,,,,,,,,,,,,,,,,,,,,,,,,,,,,,,,,,,,,,,,,,,,,,
,,,,,,,,,,,,,,,,,,,,,,,,,,,,,,,,,,,,,,,,,,,,,,,,,,,,,
,,,,,,,,,,,,,,,,,,,,,,,,,,,,,,,,,,,,,,,,,,,,,,,,,,,,,
,,,,,,,,,,,,,,,,,,,,,,,,,,,,,,,,,,,,,,,,,,,,,,,,,,,,,
,,,,,,,,,,,,,,,,,,,,,,,,,,,,,,,,,,,,,,,,,,,,,,,,,,,,,
,,,,,,,,,,,,,,,,,,,,,,,,,,,,,,,,,,,,,,,,,,,,,,,,,,,,,
,,,,,,,,,,,,,,,,,,,,,,,,,,,,,,,,,,,,,,,,,,,,,,,,,,,,,
,,,,,,,,,,,,,,,,,,,,,,,,,,,,,,,,,,,,,,,,,,,,,,,,,,,,,
,,,,,,,,,,,,,,,,,,,,,,,,,,,,,,,,,,,,,,,,,,,,,,,,,,,,,
,,,,,,,,,,,,,,,,,,,,,,,,,,,,,,,,,,,,,,,,,,,,,,,,,,,,,
,,,,,,,,,,,,,,,,,,,,,,,,,,,,,,,,,,,,,,,,,,,,,,,,,,,,,
,,,,,,,,,,,,,,,,,,,,,,,,,,,,,,,,,,,,,,,,,,,,,,,,,,,,,
,,,,,,,,,,,,,,,,,,,,,,,,,,,,,,,,,,,,,,,,,,,,,,,,,,,,,
,,,,,,,,,,,,,,,,,,,,,,,,,,,,,,,,,,,,,,,,,,,,,,,,,,,,,
,,,,,,,,,,,,,,,,,,,,,,,,,,,,,,,,,,,,,,,,,,,,,,,,,,,,,
,,,,,,,,,,,,,,,,,,,,,,,,,,,,,,,,,,,,,,,,,,,,,,,,,,,,,
,,,,,,,,,,,,,,,,,,,,,,,,,,,,,,,,,,,,,,,,,,,,,,,,,,,,,
,,,,,,,,,,,,,,,,,,,,,,,,,,,,,,,,,,,,,,,,,,,,,,,,,,,,,
,,,,,,,,,,,,,,,,,,,,,,,,,,,,,,,,,,,,,,,,,,,,,,,,,,,,,
